<?xml version="1.0" standalone="no"?>
<!DOCTYPE svg PUBLIC "-//W3C//DTD SVG 1.1//EN" "http://www.w3.org/Graphics/SVG/1.1/DTD/svg11.dtd" >
<svg>
<metadata>
Created by FontForge 20090622 at Sun Jun 28 13:45:35 2015
 By deploy user
Copyright &#194;&#169;1992 by Miles Inc. All rights reserved.
</metadata>
<defs>
<font id="UniversATT" horiz-adv-x="1289" >
  <font-face 
    font-family="Univers ATT"
    font-weight="5"
    font-stretch="normal"
    units-per-em="2048"
    panose-1="2 11 6 3 2 2 2 3 2 4"
    ascent="1638"
    descent="-410"
    x-height="982"
    cap-height="1410"
    bbox="-447 -512 1992 1979"
    underline-thickness="105"
    underline-position="-355"
    unicode-range="U+0020-U+F002"
  />
<missing-glyph horiz-adv-x="1022" 
d="M76 0v1457h870v-1457h-870zM332 256h358v945h-358v-945z" />
    <glyph glyph-name=".notdef" horiz-adv-x="1022" 
d="M76 0v1457h870v-1457h-870zM332 256h358v945h-358v-945z" />
    <glyph glyph-name=".null" horiz-adv-x="0" 
 />
    <glyph glyph-name="nonmarkingreturn" horiz-adv-x="683" 
 />
    <glyph glyph-name="space" unicode=" " horiz-adv-x="683" 
 />
    <glyph glyph-name="exclam" unicode="!" horiz-adv-x="683" 
d="M438 0h-198v198h198v-198zM409 353h-129l-40 1059h210z" />
    <glyph glyph-name="quotedbl" unicode="&#x22;" horiz-adv-x="1024" 
d="M455 1418l-56 -478h-118l-56 478h230zM801 1418l-56 -478h-118l-56 478h230z" />
    <glyph glyph-name="numbersign" unicode="#" 
d="M184 550h185l105 357h-187l41 132h186l107 368h149l-110 -368h242l109 368h144l-112 -368h179l-38 -132h-179l-104 -357h182l-39 -132h-183l-121 -418h-148l124 418h-242l-124 -418h-143l121 418h-182zM514 550h242l106 357h-239z" />
    <glyph glyph-name="dollar" unicode="$" 
d="M457 522l5 -43q30 -149 210 -147q218 2 224 156q1 103 -114 130l-218 56q-62 16 -117 41q-151 67 -149 229q-2 207 231 271l53 12v237h187v-237l41 -3q233 -24 238 -260v-23h-187v33q-8 124 -183 127q-80 -1 -129 -30q-67 -40 -64 -108q-1 -83 84 -111q35 -14 86 -25
q133 -32 252 -70q177 -56 176 -235q0 -191 -144 -268q-55 -31 -121 -41l-49 -7v-262h-187v262l-46 5q-73 10 -136 51q-119 73 -128 211l-2 49h187z" />
    <glyph glyph-name="percent" unicode="%" horiz-adv-x="2048" 
d="M1409 1455h129l-851 -1520h-130zM1189 535q31 103 120 165q84 58 197 59q150 0 243.5 -103t94.5 -291q-2 -177 -84 -277q-94 -116 -260 -116q-163 -1 -256 117q-82 103 -80 275q-1 90 25 171zM1320 368q-1 -76 17 -143q32 -138 167 -135q64 -2 111 41t61 107
q12 55 12 125q2 282 -182 278q-141 2 -173 -149q-14 -59 -13 -124zM336 1317q93 117 256 118q75 0 138.5 -27.5t108.5 -75.5q93 -101 95 -289q0 -94 -24 -171q-32 -103 -119 -164t-198 -60q-166 -1 -259 118q-80 101 -80 278q1 172 82 273zM410 1038q0 -70 18 -135
q9 -39 32 -69q45 -67 133 -68q182 -3 185 274q-2 141 -51 212q-41 62 -128 65q-191 1 -189 -279z" />
    <glyph glyph-name="ampersand" unicode="&#x26;" horiz-adv-x="1555" 
d="M402 894q-33 43 -55 99q-34 79 -33 162q-1 138 111 216q97 66 242 67q175 -3 260 -92q71 -73 72 -195q-2 -134 -93 -218q-72 -67 -199 -138v0l384 -410v0l23 74q19 84 20 205l-2 158h177v-61q-1 -317 -62 -441l-28 -46v0l270 -274h-260l-133 134v0l-32 -27
q-74 -59 -157 -92q-110 -44 -242 -43q-373 1 -477 274q-29 72 -28 155q-2 123 58 219q45 76 121 128q51 35 121 74v0zM543 705v0q-106 -73 -143 -119q-66 -79 -65 -169q-1 -127 104 -220q96 -86 230 -85q152 0 314 128v0zM614 902v0q83 52 142 102q66 55 68 143
q-2 147 -164 151q-71 1 -120.5 -37t-50.5 -112q-1 -101 125 -247v0z" />
    <glyph glyph-name="quotesingle" unicode="'" horiz-adv-x="683" 
d="M451 1418l-56 -478h-118l-56 478h230z" />
    <glyph glyph-name="parenleft" unicode="(" horiz-adv-x="683" 
d="M385 -169l-47 128q-50 141 -73 225q-67 231 -68 411q-1 79 12 157q36 243 167 578l32 80h133l-28 -88q-105 -348 -127 -568q-10 -82 -9 -158q2 -244 103 -627l37 -132l10 -35h-130z" />
    <glyph glyph-name="parenright" unicode=")" horiz-adv-x="683" 
d="M282 1382q200 -455 202 -764q0 -79 -13 -158q-26 -163 -83 -329q-37 -106 -95 -248l-34 -81h-134l31 88q41 121 76 254q46 175 62 314q10 85 10 164q-2 178 -53 394q-25 105 -60 228l-40 132l-11 34h129z" />
    <glyph glyph-name="asterisk" unicode="*" 
d="M608 1129l-171 239l118 70l121 -266v0l116 266l122 -69l-171 -240l290 30v-139l-288 30l173 -230l-116 -69l-122 260v0l-114 -269l-123 67l165 242l-290 -30v138z" />
    <glyph glyph-name="plus" unicode="+" horiz-adv-x="2048" 
d="M993 630v519h119v-519h517v-119h-517v-519h-119v519h-517v119h517z" />
    <glyph glyph-name="comma" unicode="," horiz-adv-x="683" 
d="M292 236h214l-214 -475h-124z" />
    <glyph glyph-name="hyphen" unicode="-" horiz-adv-x="683" 
d="M581 603v-133h-488v133h488z" />
    <glyph glyph-name="period" unicode="." horiz-adv-x="683" 
d="M455 236v-236h-217v236h217z" />
    <glyph glyph-name="slash" unicode="/" horiz-adv-x="683" 
d="M541 1410h115l-450 -1517h-115z" />
    <glyph glyph-name="zero" unicode="0" 
d="M278 1276q75 81 172 122q87 37 183 37q98 -1 191 -39q191 -80 285 -293q82 -184 82 -407q0 -299 -120 -485q-153 -241 -419 -239q-273 1 -431 246q-123 189 -124 497q1 368 181 561zM284 715q-1 -184 59 -343q61 -166 199 -222q50 -22 108 -21q56 -1 105 20
q246 97 249 562q0 173 -60 330q-38 99 -118 165q-89 72 -187 72q-52 0 -103 -22q-252 -105 -252 -541z" />
    <glyph glyph-name="one" unicode="1" 
d="M408 1238q108 57 237 169h166v-1407h-187v1206l-37 -35q-97 -87 -217 -136l-61 -23v178z" />
    <glyph glyph-name="two" unicode="2" 
d="M408 370q236 204 386 392q59 75 91 132q39 68 40 154q0 106 -73 172q-63 57 -179 58q-126 0 -195 -63q-64 -57 -70 -189h-187q35 409 454 409q108 0 199 -35q70 -27 129 -86q109 -110 109 -264q-1 -109 -40 -193q-72 -154 -226 -310q-137 -139 -287 -259l-173 -131v0h760
v-157h-978v172z" />
    <glyph glyph-name="three" unicode="3" 
d="M330 384l17 -55q42 -118 155 -169q66 -32 145 -31q127 0 219.5 72t94.5 204q0 45 -12 78q-15 41 -47 70q-46 42 -99 60q-85 28 -189 29h-77v157h43q146 0 229 51q113 71 112 200q-2 111 -89 176q-71 52 -193 52q-226 -1 -263 -160q-9 -32 -13 -74h-187l8 64
q51 325 456 327q345 -2 443 -248q25 -63 25 -134q-1 -222 -199 -315l-31 -13v0l40 -12q151 -48 204 -172q26 -61 26 -141q-3 -204 -156 -322q-139 -107 -348 -106q-256 -1 -393 170q-70 85 -97 193l-11 49h187z" />
    <glyph glyph-name="four" unicode="4" 
d="M720 1407h223v-902h268v-157h-268v-348h-187v348h-661v179zM260 505v0h496v721v0z" />
    <glyph glyph-name="five" unicode="5" 
d="M366 363q37 -238 260 -234q205 -1 275 178q29 72 29 154q-1 135 -69 223q-75 99 -207 98q-177 0 -231 -143q-10 -23 -17 -59h-197l17 827h804v-157h-624v0l-17 -463v0l35 40q109 111 275 112q128 -1 232 -73t149 -192q38 -98 37 -206q0 -213 -130 -354t-350 -142
q-168 1 -285 75q-127 81 -160 242l-13 74h187z" />
    <glyph glyph-name="six" unicode="6" 
d="M342 729q95 127 199 168q84 33 178 33q199 0 322 -128q119 -124 121 -326q0 -120 -43 -225q-33 -82 -96 -145t-143 -94q-101 -41 -215 -40q-114 -1 -210 39q-69 26 -122 78q-177 164 -178 553q2 279 74 469q43 115 123 192q131 129 353 132q186 -1 299 -92
q106 -86 126 -282h-187q-28 218 -238 217q-287 0 -350 -409q-13 -76 -13 -132v-8v0zM366 450q-1 -79 28 -146q31 -78 109 -130q69 -46 163 -45q143 -1 226.5 95.5t82.5 234.5q1 130 -78 222t-215 92q-140 0 -230 -91q-86 -87 -86 -232z" />
    <glyph glyph-name="seven" unicode="7" 
d="M164 1407h963v-162l-546 -1245h-227l571 1250v0h-761v157z" />
    <glyph glyph-name="eight" unicode="8" 
d="M358 761q-48 23 -88 63q-48 45 -75 107t-26 131q-1 106 65 199q62 87 167 128q115 45 246 46q147 0 262 -54q136 -65 185 -187q25 -62 25 -131q2 -201 -206 -304l-40 -19v0l44 -16q233 -99 233 -336q-1 -164 -107 -272q-139 -143 -406 -144q-215 -1 -342 95
q-156 117 -157 310q-1 127 74 224q48 63 197 137v0zM325 391q-1 -125 95 -197q86 -66 213 -65q242 -2 311 177q19 49 19 93q-3 126 -100 198q-88 66 -215 65q-134 -1 -225 -66q-98 -71 -98 -205zM356 1047q0 -112 92 -175q80 -55 196 -53q120 0 195 55q94 69 93 176
q1 102 -92 173q-70 54 -192 55q-146 -1 -227 -82q-64 -60 -65 -149z" />
    <glyph glyph-name="nine" unicode="9" 
d="M342 351l12 -57q27 -113 128 -146q54 -19 113 -19q325 1 356 452l8 157l-33 -54q-20 -31 -47 -57q-106 -105 -272 -105q-199 0 -322 126q-55 53 -87 131q-41 92 -40 195q-1 210 139 338q131 122 348 123q327 1 435 -277q63 -158 66 -430q-6 -757 -544 -756
q-162 -1 -274 69q-125 77 -158 228l-15 82h187zM345 978q-2 -129 74.5 -215t208.5 -84q133 1 211 83.5t78 215.5q0 131 -72 213q-77 88 -205 87q-131 -1 -212.5 -83.5t-82.5 -216.5z" />
    <glyph glyph-name="colon" unicode=":" horiz-adv-x="683" 
d="M452 236v-236h-217v236h217zM452 982v-236h-217v236h217z" />
    <glyph glyph-name="semicolon" unicode=";" horiz-adv-x="683" 
d="M277 236h222l-211 -475h-127zM464 982v-236h-217v236h217z" />
    <glyph glyph-name="less" unicode="&#x3c;" horiz-adv-x="2048" 
d="M1637 1235v-160l-1024 -468l1024 -455v-161l-1225 544v144z" />
    <glyph glyph-name="equal" unicode="=" horiz-adv-x="2048" 
d="M1630 450v-119h-1154v119h1154zM1630 821v-119h-1154v119h1154z" />
    <glyph glyph-name="greater" unicode="&#x3e;" horiz-adv-x="2048" 
d="M1637 688v-148l-1225 -549v162l1014 461l-1014 456v165z" />
    <glyph glyph-name="question" unicode="?" horiz-adv-x="1062" 
d="M539 198v-198h-198v198h198zM307 1411q76 13 149 13q125 -1 226 -42q69 -29 114 -73q88 -86 90 -221q-1 -70 -24 -122q-48 -105 -145 -199l-144 -135q-58 -53 -56 -121v-158h-159v158q-1 76 4 92q8 29 55 73l83 78q59 56 112 118q77 90 79 182q0 100 -91 161
q-64 44 -185 46q-58 0 -117 -6l-90 -11v147z" />
    <glyph glyph-name="at" unicode="@" horiz-adv-x="2049" 
d="M1217 1125h180v-509l4 -81q13 -145 114 -148q136 -2 168 255q8 63 8 137q-1 135 -33 252q-57 204 -224 322q-157 111 -376 113q-147 0 -276 -52q-422 -169 -425 -700q-1 -346 189 -550q198 -211 540 -208q103 -1 192 16l111 25v-169l-89 -22q-93 -20 -208 -19
q-426 -1 -679.5 249t-252.5 677q0 408 248 660q257 259 656 262q154 0 283 -42q376 -124 493 -495q48 -155 48 -325q0 -128 -28 -239q-35 -137 -127 -226t-236 -90q-44 -1 -81 8q-127 25 -174 187v0q-66 -190 -283 -190q-66 -1 -119 20q-126 44 -195 181q-53 107 -54 266
q1 233 123 354q104 106 261 106q148 -3 226 -117l16 -26v118zM778 685q0 -133 41 -211q60 -114 172 -111q105 -1 167 92q52 85 52 224q0 95 -23 172q-15 49 -50 93q-50 64 -139 66q-174 0 -211 -212q-10 -54 -9 -113z" />
    <glyph glyph-name="A" unicode="A" horiz-adv-x="1517" 
d="M649 1410h213l581 -1410h-211l-150 367v0h-652v0l-151 -367h-211zM498 530v0h516v0l-258 702v0z" />
    <glyph glyph-name="B" unicode="B" 
d="M179 1410h477q86 0 162 -9q150 -19 240 -106q98 -94 100 -240q-1 -101 -50 -176q-60 -89 -138 -117q-22 -9 -69 -17v0q309 -68 309 -366q-3 -220 -180 -319q-81 -46 -183 -55q-53 -4 -191 -5h-477v1410zM374 163h288q177 0 242 35q111 60 111 208q-3 246 -353 248h-288
v-491zM374 817h291q301 2 298 213q-1 216 -298 217h-291v-430z" />
    <glyph glyph-name="C" unicode="C" horiz-adv-x="1441" 
d="M1113 1089q-24 93 -130 146q-78 39 -195 40q-236 0 -353 -163q-100 -140 -99 -386q4 -565 441 -591q115 -1 201 43q104 54 133 154l10 44h195v-33q-8 -96 -87 -195q-67 -83 -172 -124q-132 -53 -280 -52q-320 0 -488 209q-148 184 -148 520q-1 204 64.5 379t231.5 272
q146 86 351 86q216 -1 344 -84q175 -114 183 -294v-24h-195z" />
    <glyph glyph-name="D" unicode="D" horiz-adv-x="1479" 
d="M186 1410h420q390 0 553 -169q84 -87 126 -197q63 -164 63 -346q-3 -353 -195 -539q-105 -102 -256 -134q-120 -26 -291 -25h-420v1410zM381 163h230q174 0 290 40q135 46 198 208q54 137 54 296q0 262 -136 408q-121 131 -406 132h-230v-1084z" />
    <glyph glyph-name="E" unicode="E" horiz-adv-x="1176" 
d="M184 1410h862v-163h-667v-440h636v-163h-636v-481h687v-163h-882v1410z" />
    <glyph glyph-name="F" unicode="F" horiz-adv-x="1138" 
d="M181 1410h873v-163h-678v-449h642v-163h-642v-635h-195v1410z" />
    <glyph glyph-name="G" unicode="G" horiz-adv-x="1517" 
d="M821 767h514v-713q-308 -81 -495 -82q-194 -1 -347 60q-187 72 -283 268q-81 163 -79 388q-2 334 166 534q183 217 510 216q120 -1 232 -31q274 -75 295 -333l1 -25h-195l-16 56q-17 50 -53 84q-49 47 -115.5 66.5t-140.5 19.5q-106 0 -202 -37q-233 -87 -276 -389
q-11 -73 -11 -149q-1 -165 49 -301q92 -263 470 -264q116 -2 248 32l47 14v423h-319v163z" />
    <glyph glyph-name="H" unicode="H" horiz-adv-x="1479" 
d="M374 1410v-600h729v600h195v-1410h-195v647h-729v-647h-195v1410h195z" />
    <glyph glyph-name="I" unicode="I" horiz-adv-x="569" 
d="M384 1410v-1410h-195v1410h195z" />
    <glyph glyph-name="J" unicode="J" horiz-adv-x="1138" 
d="M268 367q5 -124 59 -174q64 -58 176 -58q137 -2 209 86q52 65 52 225v964h195v-964q-2 -474 -459 -474q-306 1 -398 223q-22 47 -25 97l-4 75h195z" />
    <glyph glyph-name="K" unicode="K" horiz-adv-x="1365" 
d="M966 1410h245l-596 -624l667 -786h-253l-627 750v0v-750h-195v1410h195v-607v0z" />
    <glyph glyph-name="L" unicode="L" horiz-adv-x="1100" 
d="M374 1410v-1247h668v-163h-863v1410h195z" />
    <glyph glyph-name="M" unicode="M" horiz-adv-x="1858" 
d="M492 1410l438 -1177v0l428 1177h319v-1410h-195v1261v0l-455 -1261h-195l-464 1261v0v-1261h-195v1410h319z" />
    <glyph glyph-name="N" unicode="N" horiz-adv-x="1479" 
d="M425 1410l687 -1166v0v1166h195v-1410h-255l-687 1173v0v-1173h-195v1410h255z" />
    <glyph glyph-name="O" unicode="O" horiz-adv-x="1555" 
d="M336 1282q72 71 159 105q125 51 274 51q200 -1 344 -83q161 -93 228 -268q64 -169 64 -374q0 -200 -61 -371q-41 -117 -132 -207q-77 -78 -172 -114q-125 -49 -270 -49q-149 -1 -274 50q-213 83 -295 303q-67 175 -66 383q-2 377 201 574zM330 703q-1 -174 53 -317
q27 -79 92 -142q104 -109 295 -109q440 -2 440 593q0 161 -54 304q-26 68 -84 130q-104 112 -292 113q-447 1 -450 -572z" />
    <glyph glyph-name="P" unicode="P" horiz-adv-x="1214" 
d="M673 1410q147 0 268 -41q68 -23 120 -76q48 -50 76 -116q32 -78 32 -166t-32 -164q-102 -242 -461 -243h-307v-604h-195v1410h499zM369 1247v-480h310q122 -1 203 61q90 69 92 187q1 229 -295 232h-310z" />
    <glyph glyph-name="Q" unicode="Q" horiz-adv-x="1593" 
d="M1530 163v-163h-89q-181 -1 -277 -6l-357 -22q-344 -1 -505 193q-151 184 -152 530q-1 199 62 372q42 119 134 209q74 73 169 111q127 51 270 51q145 0 276 -52q357 -142 357 -661q0 -187 -59 -352q-36 -101 -100 -166l-49 -44v0h320zM345 710q-1 -319 145 -467
q45 -49 109 -73q85 -36 184 -35q95 -1 176 32q264 103 264 554q-2 421 -260 522q-82 32 -174 32q-442 -1 -444 -565z" />
    <glyph glyph-name="R" unicode="R" horiz-adv-x="1327" 
d="M182 1410h521q154 -1 274 -37q141 -43 198 -181q28 -69 28 -148q-3 -268 -282 -337v0q121 -20 165 -77q48 -61 64 -174l43 -289q11 -80 35 -133l17 -34h-210l-29 112q-12 54 -34 216q-14 102 -41 180q-41 124 -227 124h-327v-632h-195v1410zM377 795h340q163 1 229 68
q61 59 62 161q-2 222 -299 223h-332v-452z" />
    <glyph glyph-name="S" unicode="S" horiz-adv-x="1327" 
d="M331 414q7 -110 36 -152q46 -68 123.5 -98t174.5 -29q138 0 232 52q124 68 122 193q0 47 -17 87q-31 74 -120 106l-379 99q-80 19 -149 51q-135 60 -181 177q-26 61 -25 131q-1 121 71 217.5t189 140.5q128 48 280 49q122 0 232 -35q212 -67 246 -288l8 -61h-195
q-26 222 -307 221q-95 0 -181 -33q-150 -54 -148 -191q1 -90 55 -130q29 -26 60 -35q117 -42 344 -93q99 -23 182 -55q228 -90 230 -340q-1 -83 -31 -156q-111 -271 -519 -270q-282 0 -416 131q-64 60 -87 143q-18 65 -25 168h195z" />
    <glyph glyph-name="T" unicode="T" 
d="M1216 1410v-163h-475v-1247h-195v1247h-475v163h1145z" />
    <glyph glyph-name="U" unicode="U" horiz-adv-x="1479" 
d="M371 1410v-818l4 -97q31 -362 359 -360q340 2 368 360l5 97v818h195v-812l-3 -122q-9 -163 -77 -271q-146 -233 -484 -233q-240 0 -393 127.5t-166 376.5l-3 122v812h195z" />
    <glyph glyph-name="V" unicode="V" horiz-adv-x="1479" 
d="M1196 1410h210l-563 -1410h-215l-563 1410h210l461 -1221v0z" />
    <glyph glyph-name="W" unicode="W" horiz-adv-x="2048" 
d="M261 1410l327 -1204v0l334 1204h205l353 -1211v0l324 1211h188l-419 -1410h-205l-352 1206v0l-335 -1206h-205l-419 1410h204z" />
    <glyph glyph-name="X" unicode="X" horiz-adv-x="1479" 
d="M620 738v0l-491 672h243l378 -547v0l375 547h229l-491 -672v0l539 -738h-244l-423 601v0l-420 -601h-233z" />
    <glyph glyph-name="Y" unicode="Y" horiz-adv-x="1403" 
d="M292 1410l413 -687v0l418 687h209l-542 -832v-578h-195v570l-542 840h239z" />
    <glyph glyph-name="Z" unicode="Z" horiz-adv-x="1252" 
d="M101 181l803 1066v0h-784v163h1004v-188l-806 -1059v0h832v-163h-1049v181z" />
    <glyph glyph-name="bracketleft" unicode="[" horiz-adv-x="683" 
d="M557 1410v-83h-191v-1428h191v-83h-360v1594h360z" />
    <glyph glyph-name="backslash" unicode="\" horiz-adv-x="683" 
d="M59 1410h115l448 -1518h-113z" />
    <glyph glyph-name="bracketright" unicode="]" horiz-adv-x="683" 
d="M117 -184v83h191v1428h-191v83h360v-1594h-360z" />
    <glyph glyph-name="asciicircum" unicode="^" horiz-adv-x="1024" 
d="M458 1209q-125 -113 -290 -189l-69 -27v94l78 62q182 157 268 353l14 34h105l13 -33q85 -195 269 -354l78 -62v-94l-68 27q-61 26 -144 80q-94 60 -147 109q-19 16 -53 53v0z" />
    <glyph glyph-name="underscore" unicode="_" horiz-adv-x="1024" 
d="M1024 -407v-105h-1024v105h1024z" />
    <glyph glyph-name="grave" unicode="`" 
d="M390 1405h249l188 -301h-173z" />
    <glyph glyph-name="a" unicode="a" horiz-adv-x="1100" 
d="M166 723q11 95 29 133q28 59 95 97q99 56 267 57q186 -1 281 -63q114 -73 116 -251v-383l1 -75l3 -99q3 -61 11 -95l13 -44h-175q-25 71 -28 135l-15 -23q-26 -38 -61 -65q-93 -74 -235 -75q-95 0 -178 34q-58 22 -97 64q-35 34 -54 83q-25 57 -24 122q-1 60 21 115
t68 101q54 55 113 76q130 47 321 48h135q1 150 -31 194q-48 65 -181 66q-92 -1 -142 -30t-65 -122h-188v0zM773 483h-116q-139 -1 -227 -29q-126 -41 -127 -172q1 -88 62.5 -132t146.5 -43q187 0 234 148q27 87 27 228v0z" />
    <glyph glyph-name="b" unicode="b" horiz-adv-x="1176" 
d="M156 1412h181v-552l47 48q103 100 273 102q85 0 159 -28q69 -27 117 -77q137 -146 139 -411q-2 -225 -102 -360q-121 -161 -327 -162q-86 -1 -159 31q-64 26 -113 75l-34 36v-114h-181v1412zM337 484q-3 -376 271 -377q147 -1 218 124q57 100 58 256q1 119 -40 221
q-65 164 -231 167q-145 0 -223 -130q-54 -90 -53 -261z" />
    <glyph glyph-name="c" unicode="c" horiz-adv-x="1100" 
d="M793 670q-28 203 -227 205q-60 0 -112 -21q-96 -38 -126 -130q-34 -98 -34 -209q0 -189 41 -274q65 -137 226 -134q183 0 224 134q12 35 19 88h188q-15 -105 -35 -153q-29 -70 -97 -120q-115 -84 -297 -84q-231 0 -347 141q-110 135 -110 364q-1 254 110 382
q130 150 365 151q213 -2 314 -112q57 -62 74 -146l12 -82h-188v0z" />
    <glyph glyph-name="d" unicode="d" horiz-adv-x="1176" 
d="M829 1412h181v-1412h-181v127q-101 -155 -308 -155q-90 -1 -165 32q-264 112 -262 483q0 225 101 360q121 161 330 163q169 -2 265 -106l39 -47v555zM282 476q-1 -154 56 -248q74 -120 212 -121q278 4 280 394q0 109 -36 208q-26 72 -92 120q-62 45 -143 46
q-154 0 -223 -134q-56 -106 -54 -265z" />
    <glyph glyph-name="e" unicode="e" horiz-adv-x="1100" 
d="M289 466q7 -135 29 -196q38 -106 130 -142q51 -22 110 -21q203 2 234 207h188q-22 -130 -66 -188q-65 -85 -158 -120t-197 -34q-230 -1 -347 140q-113 136 -111 364q-1 160 49 286q45 117 164 187q103 62 244 61q400 -3 428 -404l3 -140h-700v0zM289 598h512
q-5 145 -54 202q-63 74 -192 75q-204 -1 -250 -198z" />
    <glyph glyph-name="f" unicode="f" horiz-adv-x="759" 
d="M263 982l1 109q-1 154 27 212q46 94 175 113q52 8 111 8l67 -3l31 -4v-135l-71 7q-40 0 -68 -7q-67 -15 -82 -73q-11 -43 -10 -115v-112h231v-132h-231v-850h-181v850h-192v132h192z" />
    <glyph glyph-name="g" unicode="g" horiz-adv-x="1176" 
d="M339 -77l1 -33q16 -151 226 -151q239 0 263 233q6 60 6 113v98l-31 -44q-101 -124 -291 -123q-185 -1 -286 110q-57 60 -84 134q-44 113 -43 246q0 128 42 239q44 120 157 195q107 71 242 70q177 -1 271 -121l23 -32v125h181v-900q-2 -128 -15 -192q-20 -104 -85 -170
q-115 -117 -356 -116q-379 -4 -406 254l-3 65h188zM288 503q0 -354 268 -352q276 1 281 369q0 158 -58 244q-77 113 -217 111q-275 3 -274 -372z" />
    <glyph glyph-name="h" unicode="h" horiz-adv-x="1176" 
d="M329 1412v-557q108 156 332 155q90 0 171 -32q61 -24 106 -72q90 -95 91 -333v-573h-181v579q0 162 -67 230q-31 32 -68 46q-50 20 -110 20q-197 -1 -246 -133q-23 -55 -26 -131l-2 -53v-558h-181v1412h181z" />
    <glyph glyph-name="i" unicode="i" horiz-adv-x="493" 
d="M336 982v-982h-181v982h181zM345 1412v-188h-199v188h199z" />
    <glyph glyph-name="j" unicode="j" horiz-adv-x="493" 
d="M-21 -253q113 0 142 24q35 29 35 139v1072h181v-1069q0 -113 -24 -181q-39 -122 -231 -120l-103 8v127v0zM346 1412v-188h-199v188h199z" />
    <glyph glyph-name="k" unicode="k" horiz-adv-x="1100" 
d="M750 982h219l-402 -419l483 -563h-234l-454 527v0v-527h-181v1412h181v-834v0z" />
    <glyph glyph-name="l" unicode="l" horiz-adv-x="493" 
d="M150 1412h181v-1412h-181v1412z" />
    <glyph glyph-name="m" unicode="m" horiz-adv-x="1783" 
d="M329 982v-127l37 50q94 103 274 105q102 -2 179 -44q62 -34 128 -133v0q76 113 168 148q77 29 164 29q333 -4 345 -346l1 -84v-580h-181v585q-1 152 -38 203q-62 85 -180 87q-248 -1 -249 -303v-572h-181v572q-1 158 -32 209q-58 92 -181 94q-122 -1 -188 -74
q-23 -24 -35 -54q-29 -66 -31 -175v-572h-181v982h181z" />
    <glyph glyph-name="n" unicode="n" horiz-adv-x="1176" 
d="M147 982h169v-134q115 160 339 162q96 0 176 -31q183 -69 196 -348l1 -47v-584h-181v589q0 213 -132 266q-49 20 -110 20q-274 1 -277 -286v-589h-181v982z" />
    <glyph glyph-name="o" unicode="o" horiz-adv-x="1176" 
d="M167 775q73 141 210 196q96 39 211 39q110 -1 201 -36q155 -60 225 -227q48 -115 47 -253q0 -168 -63 -288q-76 -143 -215 -196q-97 -38 -207 -38q-227 0 -354 149q-115 134 -116 372q-2 160 61 282zM294 484q-1 -116 34 -208q60 -167 254 -169q152 -2 229 125
q62 103 62 266q-1 113 -37 210q-62 165 -247 167q-153 -3 -232 -126q-62 -96 -63 -265z" />
    <glyph glyph-name="p" unicode="p" horiz-adv-x="1176" 
d="M368 898q104 111 281 112q86 0 165 -33q71 -30 120 -81q132 -138 131 -400q0 -263 -130 -399q-55 -60 -133.5 -92.5t-166.5 -32.5q-178 1 -280 108l-25 28v-472h-181v1346h181v-130zM325 480q-1 -116 33 -206q58 -167 237 -167q60 -1 107 20q174 70 175 372
q1 109 -37 208q-61 168 -235 168q-151 2 -226 -130q-53 -95 -54 -265z" />
    <glyph glyph-name="q" unicode="q" horiz-adv-x="1176" 
d="M840 982h181v-1346h-181v489l-29 -40q-45 -55 -121 -84.5t-156 -28.5q-127 -1 -231 67.5t-151.5 190.5t-46.5 260q-1 160 60 284q70 144 206 201q81 34 172 35q155 -2 253 -96l44 -48v116zM293 488q-1 -213 98 -310q32 -35 74 -51q45 -21 99 -20q81 -1 148 45t95 124
q38 103 38 227q1 281 -166 352q-46 20 -101 20q-57 0 -104 -20q-183 -74 -181 -367z" />
    <glyph glyph-name="r" unicode="r" horiz-adv-x="721" 
d="M148 982h181v-108l40 44q44 45 98 66q62 25 133 26h56v-167l-62 4q-154 0 -221 -116q-44 -78 -44 -255v-476h-181v982z" />
    <glyph glyph-name="s" unicode="s" horiz-adv-x="1024" 
d="M285 296q15 -190 217 -189q225 2 229 161q1 74 -74 107q-49 19 -106 35l-190 51q-126 35 -173 85q-63 64 -63 173q-1 87 51 155.5t131 99.5q92 36 198 36q172 0 268 -59q69 -43 96 -98q21 -43 25 -135h-188q-13 157 -188 157q-87 -2 -134 -27q-74 -40 -71 -109
q-3 -78 79 -109q77 -26 232 -65q70 -18 131 -42q161 -65 164 -237q0 -155 -127 -245q-100 -71 -273 -69q-238 -2 -342 101q-69 65 -80 223h188z" />
    <glyph glyph-name="t" unicode="t" horiz-adv-x="759" 
d="M45 982h201v184l181 75v-259h247v-132h-247v-594l3 -63l7 -33q17 -55 105 -53q52 0 132 15v-135q-113 -15 -183 -15q-233 1 -244 188l-1 102v588h-201v132z" />
    <glyph glyph-name="u" unicode="u" horiz-adv-x="1176" 
d="M320 982v-563q-1 -111 24 -183q39 -128 224 -129q134 -2 216 85q54 58 55 227v563h181v-982h-168v136q-113 -163 -336 -164q-208 0 -306 124q-70 89 -71 328v558h181z" />
    <glyph glyph-name="v" unicode="v" horiz-adv-x="1138" 
d="M870 982h200l-402 -982h-203l-402 982h201l303 -835v0z" />
    <glyph glyph-name="w" unicode="w" horiz-adv-x="1783" 
d="M293 982l243 -815v0l244 815h229l254 -808v0l241 808h182l-328 -982h-203l-262 854v0l-259 -854h-203l-328 982h190z" />
    <glyph glyph-name="x" unicode="x" horiz-adv-x="1138" 
d="M461 505v0l-369 477h240l254 -358v0l258 358h210l-369 -467v0l390 -515h-231l-285 391v0l-281 -391h-211z" />
    <glyph glyph-name="y" unicode="y" horiz-adv-x="1138" 
d="M263 982l308 -775v0l306 775h192l-558 -1346h-179l146 360v0l-412 986h197z" />
    <glyph glyph-name="z" unicode="z" horiz-adv-x="986" 
d="M98 157l559 693v0h-537v132h745v-154l-564 -696v0h582v-132h-785v157z" />
    <glyph glyph-name="braceleft" unicode="{" horiz-adv-x="910" 
d="M198 622q35 10 61 23q86 39 109 145q16 76 18 191v171q-1 105 8 174q14 140 128 198q70 37 243 41v-156l-74 -6q-68 -9 -91.5 -39t-25.5 -94q-2 -29 -1 -110v-180q0 -90 -12 -170q-22 -160 -141 -267v0l36 -33q38 -39 63 -92q53 -113 54 -328v-193q0 -107 15 -144
q23 -57 120 -65l57 -4v-156q-231 0 -303 72q-76 77 -76 302v188q1 146 -21 230q-25 94 -167 146v156z" />
    <glyph glyph-name="bar" unicode="|" horiz-adv-x="1024" 
d="M564 1536v-2048h-105v2048h105z" />
    <glyph glyph-name="braceright" unicode="}" horiz-adv-x="910" 
d="M712 466q-99 -36 -137 -84.5t-45 -150.5q-7 -73 -6 -141v-188q-1 -180 -39 -252q-58 -109 -215 -119q-43 -3 -124 -3v156l57 4q94 7 118 65q15 38 16 144v193q0 116 13 201q8 62 41 127q26 54 63 92l36 33v0q-115 102 -141 267q-13 70 -12 170v180v110q-5 66 -28.5 95
t-89.5 38l-73 6v156q169 -4 241 -40q111 -54 129 -199q8 -69 8 -174v-171q1 -140 25 -222q27 -95 163 -137v-156v0z" />
    <glyph glyph-name="asciitilde" unicode="~" horiz-adv-x="2048" 
d="M417 527q115 202 331 203q102 -2 276 -66l124 -45q103 -37 177 -36q100 1 195 90l22 21l107 -89q-142 -171 -336 -171q-90 -1 -166 32l-133 56q-148 59 -241 59q-162 1 -250 -160l-123 75z" />
    <glyph glyph-name="Adieresis" unicode="&#xc4;" horiz-adv-x="1517" 
d="M649 1410h213l581 -1410h-211l-150 367v0h-652v0l-151 -367h-211zM498 530v0h516v0l-258 702v0zM674 1768v-210h-192v210h192zM1036 1768v-210h-192v210h192z" />
    <glyph glyph-name="Aring" unicode="&#xc5;" horiz-adv-x="1517" 
d="M649 1410h213l581 -1410h-211l-150 367v0h-652v0l-151 -367h-211zM498 530v0h516v0l-258 702v0zM925 1561q-69 -72 -169 -71q-140 -1 -205 122q-33 56 -32 122q-1 98 69 171.5t168 73.5q97 0 169 -74q67 -69 68 -171q-2 -104 -68 -173zM875 1735q-1 46 -36 78t-83 33
q-49 -1 -84 -31.5t-35 -79.5t34 -80t86 -32q115 2 118 112z" />
    <glyph glyph-name="Ccedilla" unicode="&#xc7;" horiz-adv-x="1441" 
d="M707 -125h161l-116 -266h-212zM1113 1089q-24 93 -130 146q-78 39 -195 40q-236 0 -353 -163q-100 -140 -99 -386q2 -593 441 -591q115 -1 201 43q104 54 133 154l10 44h195v-33q-8 -96 -87 -195q-67 -83 -172 -124q-132 -53 -280 -52q-320 0 -488 209q-148 184 -148 520
q-1 204 64.5 379t231.5 272q146 86 351 86q216 -1 344 -84q175 -114 183 -294v-24h-195z" />
    <glyph glyph-name="Eacute" unicode="&#xc9;" horiz-adv-x="1176" 
d="M184 1410h862v-163h-667v-440h636v-163h-636v-481h687v-163h-882v1410zM659 1831h250l-264 -301h-173z" />
    <glyph glyph-name="Ntilde" unicode="&#xd1;" horiz-adv-x="1479" 
d="M425 1410l687 -1166v0v1166h195v-1410h-255l-687 1173v0v-1173h-195v1410h255zM415 1535q27 247 179 245q59 0 128 -32l135 -63q16 -7 35 -7q63 -1 73 97h129q-3 -47 -9 -81q-12 -70 -59 -115q-50 -49 -117 -49q-59 0 -100 20l-145 69q-28 13 -55 13q-50 -2 -59 -56
l-6 -41h-129v0z" />
    <glyph glyph-name="Odieresis" unicode="&#xd6;" horiz-adv-x="1555" 
d="M336 1282q72 71 159 105q125 51 274 51q200 -1 344 -83q161 -93 228 -268q64 -169 64 -374q0 -200 -61 -371q-41 -117 -132 -207q-77 -78 -172 -114q-125 -49 -270 -49q-149 -1 -274 50q-213 83 -295 303q-67 175 -66 383q-2 377 201 574zM330 703q-1 -174 53 -317
q27 -79 92 -142q104 -109 295 -109q440 -2 440 593q0 161 -54 304q-26 68 -84 130q-104 112 -292 113q-447 1 -450 -572zM693 1768v-210h-192v210h192zM1055 1768v-210h-192v210h192z" />
    <glyph glyph-name="Udieresis" unicode="&#xdc;" horiz-adv-x="1479" 
d="M371 1410v-818l4 -97q31 -362 359 -360q340 2 368 360l5 97v818h195v-812l-3 -122q-9 -163 -77 -271q-146 -233 -484 -233q-240 0 -393 127.5t-166 376.5l-3 122v812h195zM655 1768v-210h-192v210h192zM1017 1768v-210h-192v210h192z" />
    <glyph glyph-name="aacute" unicode="&#xe1;" horiz-adv-x="1100" 
d="M166 723q11 95 29 133q28 59 95 97q99 56 267 57q186 -1 281 -63q114 -73 116 -251v-383l1 -75l3 -99q3 -61 11 -95l13 -44h-175q-25 71 -28 135l-15 -23q-26 -38 -61 -65q-93 -74 -235 -75q-95 0 -178 34q-58 22 -97 64q-35 34 -54 83q-25 57 -24 122q-1 60 21 115
t68 101q54 55 113 76q130 47 321 48h135q1 150 -31 194q-48 65 -181 66q-92 -1 -142 -30t-65 -122h-188v0zM773 483h-116q-139 -1 -227 -29q-126 -41 -127 -172q1 -88 62.5 -132t146.5 -43q187 0 234 148q27 87 27 228v0zM628 1405h250l-264 -301h-173z" />
    <glyph glyph-name="agrave" unicode="&#xe0;" horiz-adv-x="1100" 
d="M166 723q11 95 29 133q28 59 95 97q99 56 267 57q186 -1 281 -63q114 -73 116 -251v-383l1 -75l3 -99q3 -61 11 -95l13 -44h-175q-25 71 -28 135l-15 -23q-26 -38 -61 -65q-93 -74 -235 -75q-95 0 -178 34q-58 22 -97 64q-35 34 -54 83q-25 57 -24 122q-1 60 21 115
t68 101q54 55 113 76q130 47 321 48h135q1 150 -31 194q-48 65 -181 66q-92 -1 -142 -30t-65 -122h-188v0zM773 483h-116q-139 -1 -227 -29q-126 -41 -127 -172q1 -88 62.5 -132t146.5 -43q187 0 234 148q27 87 27 228v0zM295 1405h249l188 -301h-173z" />
    <glyph glyph-name="acircumflex" unicode="&#xe2;" horiz-adv-x="1100" 
d="M166 723q11 95 29 133q28 59 95 97q99 56 267 57q186 -1 281 -63q114 -73 116 -251v-383l1 -75l3 -99q3 -61 11 -95l13 -44h-175q-25 71 -28 135l-15 -23q-26 -38 -61 -65q-93 -74 -235 -75q-95 0 -178 34q-58 22 -97 64q-35 34 -54 83q-25 57 -24 122q-1 60 21 115
t68 101q54 55 113 76q130 47 321 48h135q1 150 -31 194q-48 65 -181 66q-92 -1 -142 -30t-65 -122h-188v0zM773 483h-116q-139 -1 -227 -29q-126 -41 -127 -172q1 -88 62.5 -132t146.5 -43q187 0 234 148q27 87 27 228v0zM478 1398h192l213 -294h-152l-157 181v0l-157 -181
h-152z" />
    <glyph glyph-name="adieresis" unicode="&#xe4;" horiz-adv-x="1100" 
d="M166 723q11 95 29 133q28 59 95 97q99 56 267 57q186 -1 281 -63q114 -73 116 -251v-383l1 -75l3 -99q3 -61 11 -95l13 -44h-175q-25 71 -28 135l-15 -23q-26 -38 -61 -65q-93 -74 -235 -75q-95 0 -178 34q-58 22 -97 64q-35 34 -54 83q-25 57 -24 122q-1 60 21 115
t68 101q54 55 113 76q130 47 321 48h135q1 150 -31 194q-48 65 -181 66q-92 -1 -142 -30t-65 -122h-188v0zM773 483h-116q-139 -1 -227 -29q-126 -41 -127 -172q1 -88 62.5 -132t146.5 -43q187 0 234 148q27 87 27 228v0zM461 1382v-210h-192v210h192zM823 1382v-210h-192
v210h192z" />
    <glyph glyph-name="atilde" unicode="&#xe3;" horiz-adv-x="1100" 
d="M166 723q11 95 29 133q28 59 95 97q99 56 267 57q186 -1 281 -63q114 -73 116 -251v-383l1 -75l3 -99q3 -61 11 -95l13 -44h-175q-25 71 -28 135l-15 -23q-26 -38 -61 -65q-93 -74 -235 -75q-95 0 -178 34q-58 22 -97 64q-35 34 -54 83q-25 57 -24 122q-1 60 21 115
t68 101q54 55 113 76q130 47 321 48h135q1 150 -31 194q-48 65 -181 66q-92 -1 -142 -30t-65 -122h-188v0zM773 483h-116q-139 -1 -227 -29q-126 -41 -127 -172q1 -88 62.5 -132t146.5 -43q187 0 234 148q27 87 27 228v0zM228 1177q27 247 179 245q59 0 128 -32l135 -63
q16 -7 35 -7q63 -1 73 97h129q-3 -47 -9 -81q-12 -70 -59 -115q-50 -49 -117 -49q-59 0 -100 20l-145 69q-28 13 -55 13q-50 -2 -59 -56l-6 -41h-129v0z" />
    <glyph glyph-name="aring" unicode="&#xe5;" horiz-adv-x="1100" 
d="M166 723q11 95 29 133q28 59 95 97q99 56 267 57q186 -1 281 -63q114 -73 116 -251v-383l1 -75l3 -99q3 -61 11 -95l13 -44h-175q-25 71 -28 135l-15 -23q-26 -38 -61 -65q-93 -74 -235 -75q-95 0 -178 34q-58 22 -97 64q-35 34 -54 83q-25 57 -24 122q-1 60 21 115
t68 101q54 55 113 76q130 47 321 48h135q1 150 -31 194q-48 65 -181 66q-92 -1 -142 -30t-65 -122h-188v0zM773 483h-116q-139 -1 -227 -29q-126 -41 -127 -172q1 -88 62.5 -132t146.5 -43q187 0 234 148q27 87 27 228v0zM724 1169q-69 -72 -169 -71q-140 -1 -205 122
q-33 56 -32 122q-1 98 69 171.5t168 73.5q97 0 169 -74q67 -69 68 -171q-2 -104 -68 -173zM674 1343q-1 46 -36 78t-83 33q-49 -1 -84 -31.5t-35 -79.5t34 -80t86 -32q115 2 118 112z" />
    <glyph glyph-name="ccedilla" unicode="&#xe7;" horiz-adv-x="1100" 
d="M497 -128h157l-117 -262h-213zM793 670q-28 203 -227 205q-60 0 -112 -21q-96 -38 -126 -130q-34 -98 -34 -209q0 -189 41 -274q65 -137 226 -134q183 0 224 134q12 35 19 88h188q-15 -105 -35 -153q-29 -70 -97 -120q-115 -84 -297 -84q-231 0 -347 141
q-110 135 -110 364q-1 254 110 382q130 150 365 151q213 -2 314 -112q57 -62 74 -146l12 -82h-188v0z" />
    <glyph glyph-name="eacute" unicode="&#xe9;" horiz-adv-x="1100" 
d="M289 466q7 -135 29 -196q38 -106 130 -142q51 -22 110 -21q203 2 234 207h188q-22 -130 -66 -188q-65 -85 -158 -120t-197 -34q-230 -1 -347 140q-113 136 -111 364q-1 160 49 286q45 117 164 187q103 62 244 61q400 -3 428 -404l3 -140h-700v0zM289 598h512
q-5 145 -54 202q-63 74 -192 75q-204 -1 -250 -198zM628 1405h250l-264 -301h-173z" />
    <glyph glyph-name="egrave" unicode="&#xe8;" horiz-adv-x="1100" 
d="M289 466q7 -135 29 -196q38 -106 130 -142q51 -22 110 -21q203 2 234 207h188q-22 -130 -66 -188q-65 -85 -158 -120t-197 -34q-230 -1 -347 140q-113 136 -111 364q-1 160 49 286q45 117 164 187q103 62 244 61q400 -3 428 -404l3 -140h-700v0zM289 598h512
q-5 145 -54 202q-63 74 -192 75q-204 -1 -250 -198zM295 1405h249l188 -301h-173z" />
    <glyph glyph-name="ecircumflex" unicode="&#xea;" horiz-adv-x="1100" 
d="M289 466q7 -135 29 -196q38 -106 130 -142q51 -22 110 -21q203 2 234 207h188q-22 -130 -66 -188q-65 -85 -158 -120t-197 -34q-230 -1 -347 140q-113 136 -111 364q-1 160 49 286q45 117 164 187q103 62 244 61q400 -3 428 -404l3 -140h-700v0zM289 598h512
q-5 145 -54 202q-63 74 -192 75q-204 -1 -250 -198zM466 1398h192l213 -294h-152l-157 181v0l-157 -181h-152z" />
    <glyph glyph-name="edieresis" unicode="&#xeb;" horiz-adv-x="1100" 
d="M289 466q7 -135 29 -196q38 -106 130 -142q51 -22 110 -21q203 2 234 207h188q-22 -130 -66 -188q-65 -85 -158 -120t-197 -34q-230 -1 -347 140q-113 136 -111 364q-1 160 49 286q45 117 164 187q103 62 244 61q400 -3 428 -404l3 -140h-700v0zM289 598h512
q-5 145 -54 202q-63 74 -192 75q-204 -1 -250 -198zM461 1382v-210h-192v210h192zM823 1382v-210h-192v210h192z" />
    <glyph glyph-name="iacute" unicode="&#xed;" horiz-adv-x="493" 
d="M334 982v-982h-181v982h181zM325 1405h250l-264 -301h-173z" />
    <glyph glyph-name="igrave" unicode="&#xec;" horiz-adv-x="493" 
d="M334 982v-982h-181v982h181zM-60 1405h249l188 -301h-173z" />
    <glyph glyph-name="icircumflex" unicode="&#xee;" horiz-adv-x="493" 
d="M334 982v-982h-181v982h181zM151 1398h192l213 -294h-152l-157 181v0l-157 -181h-152z" />
    <glyph glyph-name="idieresis" unicode="&#xef;" horiz-adv-x="493" 
d="M334 982v-982h-181v982h181zM157 1382v-210h-192v210h192zM519 1382v-210h-192v210h192z" />
    <glyph glyph-name="ntilde" unicode="&#xf1;" horiz-adv-x="1176" 
d="M147 982h169v-134q115 160 339 162q96 0 176 -31q183 -69 196 -348l1 -47v-584h-181v589q0 213 -132 266q-49 20 -110 20q-274 1 -277 -286v-589h-181v982zM266 1177q27 247 179 245q59 0 128 -32l135 -63q16 -7 35 -7q63 -1 73 97h129q-3 -47 -9 -81q-12 -70 -59 -115
q-50 -49 -117 -49q-59 0 -100 20l-145 69q-28 13 -55 13q-50 -2 -59 -56l-6 -41h-129v0z" />
    <glyph glyph-name="oacute" unicode="&#xf3;" horiz-adv-x="1176" 
d="M167 775q73 141 210 196q96 39 211 39q110 -1 201 -36q155 -60 225 -227q48 -115 47 -253q0 -168 -63 -288q-76 -143 -215 -196q-97 -38 -207 -38q-227 0 -354 149q-115 134 -116 372q-2 160 61 282zM294 484q-1 -116 34 -208q60 -167 254 -169q152 -2 229 125
q62 103 62 266q-1 113 -37 210q-62 165 -247 167q-153 -3 -232 -126q-62 -96 -63 -265zM666 1405h250l-264 -301h-173z" />
    <glyph glyph-name="ograve" unicode="&#xf2;" horiz-adv-x="1176" 
d="M167 775q73 141 210 196q96 39 211 39q110 -1 201 -36q155 -60 225 -227q48 -115 47 -253q0 -168 -63 -288q-76 -143 -215 -196q-97 -38 -207 -38q-227 0 -354 149q-115 134 -116 372q-2 160 61 282zM294 484q-1 -116 34 -208q60 -167 254 -169q152 -2 229 125
q62 103 62 266q-1 113 -37 210q-62 165 -247 167q-153 -3 -232 -126q-62 -96 -63 -265zM333 1405h249l188 -301h-173z" />
    <glyph glyph-name="ocircumflex" unicode="&#xf4;" horiz-adv-x="1176" 
d="M167 775q73 141 210 196q96 39 211 39q110 -1 201 -36q155 -60 225 -227q48 -115 47 -253q0 -168 -63 -288q-76 -143 -215 -196q-97 -38 -207 -38q-227 0 -354 149q-115 134 -116 372q-2 160 61 282zM294 484q-1 -116 34 -208q60 -167 254 -169q152 -2 229 125
q62 103 62 266q-1 113 -37 210q-62 165 -247 167q-153 -3 -232 -126q-62 -96 -63 -265zM504 1398h192l213 -294h-152l-157 181v0l-157 -181h-152z" />
    <glyph glyph-name="odieresis" unicode="&#xf6;" horiz-adv-x="1176" 
d="M167 775q73 141 210 196q96 39 211 39q110 -1 201 -36q155 -60 225 -227q48 -115 47 -253q0 -168 -63 -288q-76 -143 -215 -196q-97 -38 -207 -38q-227 0 -354 149q-115 134 -116 372q-2 160 61 282zM294 484q-1 -116 34 -208q60 -167 254 -169q152 -2 229 125
q62 103 62 266q-1 113 -37 210q-62 165 -247 167q-153 -3 -232 -126q-62 -96 -63 -265zM499 1382v-210h-192v210h192zM861 1382v-210h-192v210h192z" />
    <glyph glyph-name="otilde" unicode="&#xf5;" horiz-adv-x="1176" 
d="M167 775q73 141 210 196q96 39 211 39q110 -1 201 -36q155 -60 225 -227q48 -115 47 -253q0 -168 -63 -288q-76 -143 -215 -196q-97 -38 -207 -38q-227 0 -354 149q-115 134 -116 372q-2 160 61 282zM294 484q-1 -116 34 -208q60 -167 254 -169q152 -2 229 125
q62 103 62 266q-1 113 -37 210q-62 165 -247 167q-153 -3 -232 -126q-62 -96 -63 -265zM266 1177q27 247 179 245q59 0 128 -32l135 -63q16 -7 35 -7q63 -1 73 97h129q-3 -47 -9 -81q-12 -70 -59 -115q-50 -49 -117 -49q-59 0 -100 20l-145 69q-28 13 -55 13q-50 -2 -59 -56
l-6 -41h-129v0z" />
    <glyph glyph-name="uacute" unicode="&#xfa;" horiz-adv-x="1176" 
d="M320 982v-563q-1 -111 24 -183q39 -128 224 -129q134 -2 216 85q54 58 55 227v563h181v-982h-168v136q-113 -163 -336 -164q-208 0 -306 124q-70 89 -71 328v558h181zM666 1405h250l-264 -301h-173z" />
    <glyph glyph-name="ugrave" unicode="&#xf9;" horiz-adv-x="1176" 
d="M320 982v-563q-1 -111 24 -183q39 -128 224 -129q134 -2 216 85q54 58 55 227v563h181v-982h-168v136q-113 -163 -336 -164q-208 0 -306 124q-70 89 -71 328v558h181zM315 1405h249l188 -301h-173z" />
    <glyph glyph-name="ucircumflex" unicode="&#xfb;" horiz-adv-x="1176" 
d="M320 982v-563q-1 -111 24 -183q39 -128 224 -129q134 -2 216 85q54 58 55 227v563h181v-982h-168v136q-113 -163 -336 -164q-208 0 -306 124q-70 89 -71 328v558h181zM504 1398h192l213 -294h-152l-157 181v0l-157 -181h-152z" />
    <glyph glyph-name="udieresis" unicode="&#xfc;" horiz-adv-x="1176" 
d="M320 982v-563q-1 -111 24 -183q39 -128 224 -129q134 -2 216 85q54 58 55 227v563h181v-982h-168v136q-113 -163 -336 -164q-208 0 -306 124q-70 89 -71 328v558h181zM499 1382v-210h-192v210h192zM861 1382v-210h-192v210h192z" />
    <glyph glyph-name="dagger" unicode="&#x2020;" 
d="M600 1106v304h150v-304h295v-126h-295v-980h-150v980h-295v126h295z" />
    <glyph glyph-name="degree" unicode="&#xb0;" 
d="M337 1227q23 64 74 113q94 94 262 95q86 0 157 -27q205 -78 208 -350q-2 -174 -100.5 -269.5t-267.5 -95.5q-165 1 -256 92q-105 97 -105 282q-1 85 28 160zM458 1072q0 -112 49 -184q60 -87 163 -88q109 -1 166 79q52 72 53 182q0 75 -28 139q-55 130 -186 128
q-104 -2 -164 -79q-52 -67 -53 -177z" />
    <glyph glyph-name="cent" unicode="&#xa2;" 
d="M600 1464h187v-226q74 -14 124 -32q130 -49 168 -169q18 -55 28 -140h-187q-8 51 -21 86q-39 115 -201 118q-260 -5 -259 -373q0 -175 40 -266q59 -133 218 -130q202 -3 227 224h187l-3 -44q-16 -127 -95 -207q-47 -50 -103 -69q-49 -18 -123 -30v-262h-187v262
q-108 29 -156 57q-68 41 -116 118q-76 121 -76 320q-1 209 71 336q83 146 277 190v237z" />
    <glyph glyph-name="sterling" unicode="&#xa3;" 
d="M376 837v126q-1 127 20 201q17 64 55 114q113 155 355 157q138 -1 231 -52q116 -64 135 -188l5 -72h-187q-16 179 -185 181q-224 -2 -238 -223q-5 -51 -4 -119v-125h283v-128h-283v-578h614v-131h-908v131h107v578h-145v128h145z" />
    <glyph glyph-name="section" unicode="&#xa7;" 
d="M376 151l43 -12q121 -33 208 -34q200 0 201 154q0 45 -21 73q-36 47 -141 81l-134 43q-119 39 -163 106q-30 45 -29 111q0 159 171 242l62 27v0l-73 30q-58 27 -90 72q-38 51 -37 130q2 190 210 244q74 20 158 20q58 0 109 -9l71 -16l28 -7v-143l-44 14q-94 28 -164 28
q-177 0 -180 -131q-1 -37 15 -60q33 -51 127 -80l91 -30q130 -45 179 -115q35 -54 36 -123q-2 -153 -153 -215l-69 -26v0l69 -30q67 -32 109 -82q49 -63 51 -147q-1 -139 -119 -225q-95 -69 -250 -69q-78 0 -156 12q-50 6 -88 17l-27 7v143zM670 901v0l-54 -25
q-114 -57 -114 -154q-1 -48 31 -82q28 -34 73 -52l63 -24v0l53 19q127 53 125 159q-1 65 -53 106q-32 24 -75 38z" />
    <glyph glyph-name="bullet" unicode="&#x2022;" horiz-adv-x="1479" 
d="M379.5 1096q150.5 149 359.5 149q207 1 360 -151q150 -149 150 -359q0 -137 -68.5 -255.5t-187 -187t-254.5 -67.5q-211 -1 -360.5 147.5t-149.5 362.5q0 212 150.5 361z" />
    <glyph glyph-name="paragraph" unicode="&#xb6;" 
d="M1086 1442h-138v-1768h-79v1768h-99v-1768h-79v897l-63 13q-177 38 -279 156q-110 126 -109 299q-1 112 48 207q110 217 391 263q105 17 220 17h187v-84z" />
    <glyph glyph-name="germandbls" unicode="&#xdf;" horiz-adv-x="1252" 
d="M150 1040q-3 375 436 372q331 -1 402 -178q21 -51 21 -110q-2 -112 -80 -184l-112 -100q-45 -42 -47 -78q-3 -44 73 -87l171 -94q57 -31 103 -74q91 -85 92 -210q0 -160 -126 -251q-104 -76 -277 -74q-192 1 -281 91q-76 74 -75 195v16h188q9 -169 179 -167
q201 2 204 176q-1 82 -58 126q-52 37 -146 87q-61 31 -115 69q-36 23 -62 50q-59 55 -58 134q0 94 72 153l119 101q47 37 48 106q1 106 -104 147q-52 21 -111 21q-203 1 -254 -132q-22 -53 -21 -113v-1032h-181v1040z" />
    <glyph glyph-name="registered" unicode="&#xae;" horiz-adv-x="1024" 
d="M365 1286q61 111 173.5 175.5t240.5 64.5t240 -64t176 -176t64 -240q0 -129 -64 -241t-175 -176t-239 -63q-198 -1 -339 138t-141 342q0 124 64 240zM372 1047q-1 -106 55 -205q52 -95 148 -150t205 -55q169 -1 288 120t120 290q-1 168 -120.5 287.5t-287.5 120.5
q-169 -1 -288 -119t-120 -289zM620 1311h170q160 -6 160 -146q-2 -82 -57 -118l-27 -15l90 -224h-96l-80 207h-85v-207h-75v503zM695 1236v-146h99q78 0 81 73q2 72 -81 73h-99z" />
    <glyph glyph-name="copyright" unicode="&#xa9;" horiz-adv-x="1024" 
d="M365 1286q61 111 173.5 175.5t240.5 64.5t240 -64t176 -176t64 -240q0 -129 -64 -241t-175 -176t-239 -63q-198 -1 -339 138t-141 342q0 124 64 240zM372 1047q-1 -106 55 -205q52 -95 148 -150t205 -55q169 -1 288 120t120 290q-1 168 -120.5 287.5t-287.5 120.5
q-169 -1 -288 -119t-120 -289zM1001 867l-18 -16q-82 -66 -179 -66q-113 0 -189.5 81t-76.5 194q-1 109 74.5 191t187.5 83q95 0 173 -59l21 -17l-61 -63l-24 23q-48 39 -108 41q-80 -1 -134.5 -60.5t-53.5 -140.5q-1 -80 52 -139t132 -59q66 -1 115 43l28 27z" />
    <glyph glyph-name="trademark" unicode="&#x2122;" horiz-adv-x="1254" 
d="M684 1388v-89h-152v-518h-89v518h-152v89h393zM752 1388h163l111 -479v0l107 479h163v-607h-89v547h-7l-122 -547h-108l-122 547h-7v-547h-89v607z" />
    <glyph glyph-name="acute" unicode="&#xb4;" 
d="M723 1405h250l-264 -301h-173z" />
    <glyph glyph-name="dieresis" unicode="&#xa8;" 
d="M556 1382v-210h-192v210h192zM918 1382v-210h-192v210h192z" />
    <glyph glyph-name="notequal" unicode="&#x2260;" horiz-adv-x="2048" 
d="M1201 828v0l316 369h165l-315 -369v0h313v-135h-430v0l-236 -277v0h666v-135h-782v0l-319 -374h-167l320 374v0h-323v135h439v0l236 277v0h-675v135h792z" />
    <glyph glyph-name="AE" unicode="&#xc6;" horiz-adv-x="2010" 
d="M821 1412h1043v-163h-724v0l78 -442v0h613v-163h-585v0l85 -481v0h549v-163h-717l-67 386v0h-645v0l-210 -386h-206zM540 549v0h529v0l-126 739v0z" />
    <glyph glyph-name="Oslash" unicode="&#xd8;" horiz-adv-x="1555" 
d="M242 241q-109 185 -107 481q-1 182 59 343q66 180 224 282q143 92 351 91q255 -2 411 -128l21 -18v0l126 145l91 -79l-138 -158v0l16 -25q48 -78 74 -184q34 -141 35 -288q0 -330 -150 -518q-168 -213 -483 -213q-147 0 -276 50q-75 27 -133 79l-19 17v0l-128 -147
l-93 79l139 161v0zM1150 1050v0l-687 -793v0l20 -21q102 -101 288 -101q440 0 439 591q0 135 -36 254zM393 360v0l687 792v0l-8 10q-96 111 -296 113q-444 -1 -446 -562q0 -182 50 -319z" />
    <glyph glyph-name="infinity" unicode="&#x221e;" horiz-adv-x="2048" 
d="M1174 876q96 69 210 69q150 -2 260.5 -108t110.5 -261q-1 -155 -106.5 -261.5t-261.5 -106.5q-119 -1 -216 68q-67 48 -145 175l-40 -59q-134 -189 -319 -189q-110 -1 -200 59q-168 106 -169 311q-1 151 109 262t262 112q107 0 196 -59q69 -46 115 -110l46 -68
q84 120 148 166zM946 576l-51 91q-86 140 -223 140q-95 -1 -165 -69q-68 -64 -69 -163q1 -101 68 -166t164 -66q94 -1 168 75q43 44 108 158zM1101 576q40 -71 80 -120q80 -109 204 -108q95 -1 163 65.5t67 160.5q1 93 -66 162.5t-161 68.5q-97 -1 -175 -73
q-43 -40 -112 -156z" />
    <glyph glyph-name="plusminus" unicode="&#xb1;" horiz-adv-x="2048" 
d="M1632 119v-119h-1153v119h1153zM996 750v415h119v-415h517v-119h-517v-415h-119v415h-517v119h517z" />
    <glyph glyph-name="lessequal" unicode="&#x2264;" horiz-adv-x="2048" 
d="M1689 135v-135h-1269v135h1269zM1689 1123v-134l-967 -299l967 -305v-137l-1269 395v96z" />
    <glyph glyph-name="greaterequal" unicode="&#x2265;" horiz-adv-x="2048" 
d="M1692 135v-135h-1269v135h1269zM1692 725v-93l-1269 -384v130l965 301l-965 306v138z" />
    <glyph glyph-name="yen" unicode="&#xa5;" 
d="M1062 450v-101h-321v-101h321v-101h-321v-147h-195v147h-321v101h321v101h-321v101h321v126l-545 831h241l410 -672v0l418 672h216l-545 -831v-126h321z" />
    <glyph glyph-name="mu" unicode="&#xb5;" horiz-adv-x="1138" 
d="M-107 -296q73 171 102 244q59 148 93 268l27 93l196 673h196l-175 -581q-9 -27 -16 -62q-12 -49 -11 -85q0 -65 47.5 -104t113.5 -38q127 -2 213 138q52 85 91 191q30 82 57 174l108 367h187l-148 -512q-32 -108 -57 -260q-17 -94 -17 -164v-46h-186v19q0 55 3 99l4 48
l-30 -46q-101 -149 -238 -148q-81 0 -128 42q-34 30 -65 119l-173 -471h-212z" />
    <glyph glyph-name="partialdiff" unicode="&#x2202;" horiz-adv-x="1024" 
d="M182 1041q16 161 95 253q108 128 276 130q218 0 319 -209q73 -151 75 -395q0 -179 -41 -355q-40 -171 -126 -299q-70 -105 -191 -158q-81 -37 -172 -36q-163 -2 -269.5 107.5t-105.5 267.5q2 212 197 382q143 124 389 209q38 13 117 36l-7 46q-10 65 -30.5 122t-67.5 97
q-52 44 -110 45q-176 1 -206 -280h-145zM754 834l-65 -20q-190 -66 -336 -202q-119 -111 -120 -267q-1 -49 13 -93q40 -140 169 -140q172 -3 269 257q70 185 72 391q0 26 -2 74z" />
    <glyph glyph-name="summation" unicode="&#x2211;" horiz-adv-x="2048" 
d="M1027 510l-586 696v187h1182v-163h-998v0l612 -720l-612 -748v0h998v-163h-1198v187z" />
    <glyph glyph-name="product" unicode="&#x220f;" horiz-adv-x="1479" 
d="M1305 1410v-1410h-195v1243h-732v-1243h-195v1410h1122z" />
    <glyph glyph-name="pi" unicode="&#x3c0;" horiz-adv-x="1176" 
d="M316 829h-133l49 153h998l-44 -153h-132l-243 -829h-192l253 829h-366l-245 -829h-192z" />
    <glyph glyph-name="integral" unicode="&#x222b;" horiz-adv-x="2048" 
d="M491 -168l31 -4q43 -6 89 -5q299 -2 337 348q9 80 9 154v626q0 130 12 260q8 100 33 188q25 97 85 171q126 159 374 161q43 0 81 -5l14 -2v-140l-20 3q-30 4 -63 4q-98 0 -170 -30q-165 -69 -193 -332q-21 -182 -20 -261v-517q0 -327 -27 -422q-73 -255 -257 -316
q-89 -31 -208 -30q-52 0 -84 5l-23 4v140z" />
    <glyph glyph-name="ordfeminine" unicode="&#xaa;" horiz-adv-x="834" 
d="M158 1283q20 100 141 135q59 17 120 17q115 0 196 -58q65 -47 67 -189l-1 -151v-176l5 -87h-127l-8 82q-90 -104 -208 -104q-96 -1 -159 55t-63 151q-2 209 303 219l115 -1q0 86 -18 116q-24 42 -106 43q-85 -1 -96 -58l-5 -32h-162zM539 1086l-101 -4
q-177 -12 -175 -127q0 -49 36.5 -76.5t86.5 -26.5q118 1 144 110q8 41 9 124v0z" />
    <glyph glyph-name="ordmasculine" unicode="&#xba;" horiz-adv-x="834" 
d="M296 1411q59 24 132 24q71 0 134 -25q87 -35 139 -129q45 -83 45 -185q0 -85 -33 -161q-22 -53 -61 -91q-90 -91 -233 -92q-146 -1 -234 100q-79 90 -79 244q2 241 190 315zM260 1100q2 -252 159 -248q33 -1 66 14q107 43 107 235q-2 236 -164 234q-167 1 -168 -235z" />
    <glyph glyph-name="Omega" unicode="&#x2126;" horiz-adv-x="1517" 
d="M121 167h398q-369 137 -369 612q-1 101 21 193q49 214 207 340t378 126q129 0 240 -43q372 -144 373 -619q-1 -126 -29 -227q-22 -77 -62 -148q-60 -107 -136 -162q-41 -31 -134 -72h394v-167h-565v167q63 37 101 67q158 117 208 334q20 86 20 191q0 122 -32 231
q-24 82 -79 151q-115 144 -297 144q-101 0 -179 -43q-114 -62 -176 -208q-51 -122 -50 -270q-1 -90 18 -178q17 -95 54 -162q61 -120 177 -203q33 -25 80 -54v-167h-561v167z" />
    <glyph glyph-name="ae" unicode="&#xe6;" horiz-adv-x="1745" 
d="M806 118q-107 -149 -343 -146q-158 1 -248 69q-105 80 -105 230q-2 188 174 275q113 57 337 58h132v72q-4 195 -209 199q-180 1 -195 -163h-188q16 142 68 196q38 41 92 62q99 41 217 40q240 0 319 -130l15 -28v0l29 34q116 124 311 124q392 -3 420 -412l3 -144h-701
l1 -42q6 -129 68 -212q70 -94 196 -93q208 0 239 207h188q-14 -76 -31 -123q-21 -59 -70 -105q-119 -115 -321 -114q-232 0 -342 156l-23 38v0zM753 472h-112q-136 -2 -228 -32q-114 -36 -115 -166q2 -69 40 -105q24 -28 61 -42q46 -21 100 -20q245 2 252 292zM934 586h513
l-1 53q-12 237 -239 236q-109 1 -179 -66.5t-88 -172.5z" />
    <glyph glyph-name="oslash" unicode="&#xf8;" horiz-adv-x="1176" 
d="M203 150v0q-39 62 -53 96q-44 97 -43 238q-1 135 44 253q99 270 439 273q96 -1 165 -23q59 -18 147 -79v0l95 104l76 -69l-101 -112v0q34 -58 47 -88q45 -105 46 -248q0 -132 -44 -247q-51 -133 -175 -209q-111 -67 -265 -67q-97 0 -164 21q-60 19 -143 83v0l-95 -108
l-75 72zM378 190v0q54 -44 92 -61q45 -23 110 -22q59 -1 109 19.5t86 56.5q41 40 63 98q20 50 29.5 108.5t9.5 114.5q0 64 -13 120l-20 69v0zM327 279v0l462 508v0l-27 29q-67 59 -172 59q-120 -2 -196 -81q-101 -100 -99 -321q0 -61 11 -114z" />
    <glyph glyph-name="questiondown" unicode="&#xbf;" horiz-adv-x="1062" 
d="M799 -446q-77 -14 -149 -13q-128 0 -226 43q-202 84 -204 298q1 162 169 327l145 138q57 52 56 122v160h159v-160q0 -75 -6 -93q-9 -30 -54 -73l-83 -79q-61 -57 -110 -118q-80 -97 -81 -187q-1 -108 89 -170q65 -44 192 -45q54 -1 113 6l89 11v-147zM568 784v198h198
v-198h-198z" />
    <glyph glyph-name="exclamdown" unicode="&#xa1;" horiz-adv-x="683" 
d="M268 629h129l41 -1057h-211zM240 982h198v-198h-198v198z" />
    <glyph glyph-name="logicalnot" unicode="&#xac;" horiz-adv-x="2048" 
d="M1633 888v-636h-119v517h-1035v119h1154z" />
    <glyph glyph-name="radical" unicode="&#x221a;" horiz-adv-x="1479" 
d="M1345 1550h384v-86h-282v0l-556 -1825h-75l-571 824l-146 -106l-44 97l299 195l509 -753v0z" />
    <glyph glyph-name="florin" unicode="&#x192;" 
d="M582 850h-198l38 132h201l37 126q52 177 113 236q43 43 98 60q61 19 121 20q73 0 174 -11l-37 -135q-54 11 -92 11q-87 0 -132 -51q-34 -39 -61 -130l-40 -126h231l-41 -132h-226l-257 -850h-178z" />
    <glyph glyph-name="approxequal" unicode="&#x2248;" horiz-adv-x="2048" 
d="M421 415q30 50 63 85q102 114 283 115q112 -2 256 -72q174 -83 267 -82q123 -1 232 100l22 21l108 -88q-48 -57 -82 -86q-106 -95 -271 -96q-110 0 -304 88q-158 67 -236 66q-65 0 -123 -33q-53 -28 -84 -73l-32 -49l-121 69zM413 730q29 55 69 96q107 113 266 113
q103 -2 274 -68q58 -24 124 -47q106 -40 174 -39q103 0 199 95l22 23l107 -89q-147 -179 -336 -178q-85 -1 -167 34l-134 58q-62 26 -121 44t-118 18q-160 -2 -254 -168l-122 76z" />
    <glyph glyph-name="Delta" unicode="&#x2206;" horiz-adv-x="1517" 
d="M663 1410h195l584 -1410h-1363zM353 167v0h806v0l-402 1037v0z" />
    <glyph glyph-name="guillemotleft" unicode="&#xab;" horiz-adv-x="1138" 
d="M425 862h159l-227 -373l227 -373h-159l-260 373zM812 862h154l-227 -373l227 -373h-154l-265 373z" />
    <glyph glyph-name="guillemotright" unicode="&#xbb;" horiz-adv-x="1138" 
d="M323 116h-158l227 373l-227 373h158l261 -373zM701 116h-154l227 373l-227 373h154l265 -373z" />
    <glyph glyph-name="ellipsis" unicode="&#x2026;" horiz-adv-x="2048" 
d="M443 213v-213h-210v213h210zM1122 213v-213h-210v213h210zM1591 213h210v-213h-210v213z" />
    <glyph glyph-name="nonbreakingspace" unicode="&#xa0;" 
 />
    <glyph glyph-name="Agrave" unicode="&#xc0;" horiz-adv-x="1517" 
d="M649 1410h213l581 -1410h-211l-150 367v0h-652v0l-151 -367h-211zM498 530v0h516v0l-258 702v0zM465 1831h249l188 -301h-173z" />
    <glyph glyph-name="Atilde" unicode="&#xc3;" horiz-adv-x="1517" 
d="M649 1410h213l581 -1410h-211l-150 367v0h-652v0l-151 -367h-211zM498 530v0h516v0l-258 702v0zM434 1535q27 247 179 245q59 0 128 -32l135 -63q16 -7 35 -7q63 -1 73 97h129q-3 -47 -9 -81q-12 -70 -59 -115q-50 -49 -117 -49q-59 0 -100 20l-145 69q-28 13 -55 13
q-50 -2 -59 -56l-6 -41h-129v0z" />
    <glyph glyph-name="Otilde" unicode="&#xd5;" horiz-adv-x="1555" 
d="M336 1282q72 71 159 105q125 51 274 51q200 -1 344 -83q161 -93 228 -268q64 -169 64 -374q0 -200 -61 -371q-41 -117 -132 -207q-77 -78 -172 -114q-125 -49 -270 -49q-149 -1 -274 50q-213 83 -295 303q-67 175 -66 383q-2 377 201 574zM330 703q-1 -174 53 -317
q27 -79 92 -142q104 -109 295 -109q440 -2 440 593q0 161 -54 304q-26 68 -84 130q-104 112 -292 113q-447 1 -450 -572zM453 1535q27 247 179 245q59 0 128 -32l135 -63q16 -7 35 -7q63 -1 73 97h129q-3 -47 -9 -81q-12 -70 -59 -115q-50 -49 -117 -49q-59 0 -100 20
l-145 69q-28 13 -55 13q-50 -2 -59 -56l-6 -41h-129v0z" />
    <glyph glyph-name="OE" unicode="&#x152;" horiz-adv-x="2048" 
d="M1038 0l-45 -4q-72 -6 -145 -6q-155 -1 -280 38q-210 62 -331 262q-104 172 -103 414q-2 336 192 532q182 184 534 184l148 -6l66 -3l847 -1v-163h-693v-444h646v-163h-646v-477h693v-163h-883zM1033 1252l-181 5q-397 2 -491 -312q-33 -107 -32 -230q1 -459 345 -541
q85 -22 206 -21l153 9v1090z" />
    <glyph glyph-name="oe" unicode="&#x153;" horiz-adv-x="1858" 
d="M970 819q22 45 68 88q55 53 121.5 77.5t154.5 25.5q400 -4 422 -404l3 -140h-696l3 -55q23 -304 266 -304q211 0 239 207h188q-13 -78 -31 -124q-21 -56 -71 -104q-56 -55 -122 -79q-94 -36 -208 -35q-233 1 -333 169l-22 42v0l-22 -35q-119 -178 -358 -176
q-228 0 -351 148q-115 140 -116 368q-1 163 60 285q72 143 210 198q95 38 200 39q265 1 360 -195l17 -38v0zM293 485q-1 -375 283 -378q58 -1 107 20q179 71 179 371q-2 209 -101 309q-64 66 -177 68q-289 -5 -291 -390zM1043 598h508l-2 51q-16 225 -236 226
q-223 0 -264 -229z" />
    <glyph glyph-name="endash" unicode="&#x2013;" 
d="M1134 577v-107h-979v107h979z" />
    <glyph glyph-name="emdash" unicode="&#x2014;" horiz-adv-x="2048" 
d="M1760 577v-107h-1473v107h1473z" />
    <glyph glyph-name="quotedblleft" unicode="&#x201c;" horiz-adv-x="1024" 
d="M429 1410h132l-129 -472h-228zM779 1410h131l-129 -472h-228z" />
    <glyph glyph-name="quotedblright" unicode="&#x201d;" horiz-adv-x="1024" 
d="M341 1410h225l-228 -472h-129zM692 1410h225l-228 -472h-129z" />
    <glyph glyph-name="quoteleft" unicode="&#x2018;" horiz-adv-x="683" 
d="M374 1410h131l-128 -472h-229z" />
    <glyph glyph-name="quoteright" unicode="&#x2019;" horiz-adv-x="683" 
d="M294 1410h225l-228 -472h-129z" />
    <glyph glyph-name="divide" unicode="&#xf7;" horiz-adv-x="2048" 
d="M1118 346.5q28 -26.5 28 -66.5q0 -39 -28 -68.5t-66 -28.5q-40 -1 -68.5 28t-27.5 68q-1 38 27 65.5t68 28.5q39 0 67 -26.5zM473 630h1156v-119h-1156v119zM1117.5 930.5q28.5 -27.5 28.5 -66.5q1 -39 -28 -68t-68 -28q-39 -1 -67 28t-27 67q-1 37 26 66t67 29
t68.5 -27.5z" />
    <glyph glyph-name="lozenge" unicode="&#x25ca;" horiz-adv-x="2048" 
d="M1023 1387l635 -705l-635 -705l-635 705zM498 682l525 -595l525 595l-525 595z" />
    <glyph glyph-name="ydieresis" unicode="&#xff;" horiz-adv-x="1138" 
d="M263 982l308 -775v0l306 775h192l-558 -1346h-179l146 360v0l-412 986h197zM480 1382v-210h-192v210h192zM842 1382v-210h-192v210h192z" />
    <glyph glyph-name="Ydieresis" unicode="&#x178;" horiz-adv-x="1403" 
d="M292 1410l413 -687v0l418 687h209l-542 -832v-578h-195v570l-542 840h239zM617 1768v-210h-192v210h192zM979 1768v-210h-192v210h192z" />
    <glyph glyph-name="fraction" unicode="&#x2215;" horiz-adv-x="114" 
d="M404 1435h130l-852 -1514h-129z" />
    <glyph glyph-name="currency" unicode="&#xa4;" 
d="M222 1219l136 -137v0l47 33q46 29 111 46.5t129 17.5q62 0 127 -17.5t112 -46.5l47 -33v0l136 137l65 -65l-138 -137v0l24 -33q71 -106 72 -247q-2 -155 -75 -259l-21 -28v0l137 -138l-63 -62l-137 136v0l-40 -27q-114 -70 -247 -71q-131 0 -245 71l-41 27v0l-137 -136
l-63 62l137 138v0l-21 28q-74 104 -75 260q0 135 73 246l23 33v0l-138 137zM298 732q1 -146 102 -245t244 -100q142 0 244 101t103 245q-1 143 -102.5 244.5t-244.5 102.5q-205 -2 -299 -174q-48 -85 -47 -174z" />
    <glyph glyph-name="guilsinglleft" unicode="&#x2039;" horiz-adv-x="759" 
d="M425 862h159l-227 -373l227 -373h-159l-260 373z" />
    <glyph glyph-name="guilsinglright" unicode="&#x203a;" horiz-adv-x="759" 
d="M321 116h-154l227 373l-227 373h154l265 -373z" />
    <glyph glyph-name="fi" unicode="&#xf001;" horiz-adv-x="1252" 
d="M268 982l1 109q-1 154 27 212q46 94 175 113q52 8 111 8l67 -3l31 -4v-135l-71 7q-40 0 -68 -7q-67 -15 -82 -73q-11 -43 -10 -115v-112h231v-132h-231v-850h-181v850h-192v132h192zM1096 982v-982h-181v982h181zM1105 1412v-188h-199v188h199z" />
    <glyph glyph-name="fl" unicode="&#xf002;" horiz-adv-x="1252" 
d="M263 982l1 109q-1 154 27 212q46 94 175 113q52 8 111 8l67 -3l31 -4v-135l-71 7q-40 0 -68 -7q-67 -15 -82 -73q-11 -43 -10 -115v-112h231v-132h-231v-850h-181v850h-192v132h192zM906 1412h181v-1412h-181v1412z" />
    <glyph glyph-name="daggerdbl" unicode="&#x2021;" 
d="M600 1106v304h150v-304h295v-126h-295v-550h295v-126h-295v-304h-150v304h-295v126h295v550h-295v126h295z" />
    <glyph glyph-name="periodcentered" unicode="&#xb7;" horiz-adv-x="683" 
d="M455 817v-236h-217v236h217z" />
    <glyph glyph-name="periodcentered" unicode="&#x2219;" horiz-adv-x="683" 
d="M455 817v-236h-217v236h217z" />
    <glyph glyph-name="quotesinglbase" unicode="&#x201a;" horiz-adv-x="683" 
d="M246 236h214l-214 -475h-124z" />
    <glyph glyph-name="quotedblbase" unicode="&#x201e;" horiz-adv-x="1024" 
d="M337 236h215l-234 -475h-123zM677 236h233l-233 -475h-124z" />
    <glyph glyph-name="perthousand" unicode="&#x2030;" horiz-adv-x="2048" 
d="M1047 1455h128l-837 -1520h-131zM802 623q77 129 231 131q54 0 104 -21q182 -75 182 -362q-1 -164 -64 -268q-81 -132 -230 -131q-142 0 -223 126q-60 95 -59 257q0 171 59 268zM883 363q1 -280 144 -278q86 0 124 113q28 79 28 176q-1 86 -26 162q-34 102 -113 105
q-156 -6 -157 -278zM1444 625q78 127 228 129q122 -2 193 -77q41 -44 62 -103q35 -98 35 -207q0 -118 -40 -219q-23 -59 -64 -99q-77 -78 -188 -77q-48 0 -97 19l-39 19q-150 91 -148 351q0 168 58 264zM1526 359q1 -103 30 -187q27 -90 115 -87q43 0 75.5 32.5t45.5 69.5
q30 81 30 185q-1 86 -26 162q-35 104 -112 107q-142 -5 -156 -213zM249 1407q57 28 123 28q150 -3 224 -126q61 -102 62 -260q0 -161 -63 -267q-75 -128 -230 -129q-195 3 -256 203q-28 84 -27 183q-1 288 167 368zM222 1056q-2 -287 142 -290q87 -2 127 110q27 73 27 178
q-4 265 -146 268q-108 -2 -135 -136q-15 -64 -15 -130z" />
    <glyph glyph-name="Acircumflex" unicode="&#xc2;" horiz-adv-x="1517" 
d="M649 1410h213l581 -1410h-211l-150 367v0h-652v0l-151 -367h-211zM498 530v0h516v0l-258 702v0zM675 1824h192l213 -294h-152l-157 181v0l-157 -181h-152z" />
    <glyph glyph-name="Ecircumflex" unicode="&#xca;" horiz-adv-x="1176" 
d="M184 1410h862v-163h-667v-440h636v-163h-636v-481h687v-163h-882v1410zM504 1824h192l213 -294h-152l-157 181v0l-157 -181h-152z" />
    <glyph glyph-name="Aacute" unicode="&#xc1;" horiz-adv-x="1517" 
d="M649 1410h213l581 -1410h-211l-150 367v0h-652v0l-151 -367h-211zM498 530v0h516v0l-258 702v0zM830 1831h250l-264 -301h-173z" />
    <glyph glyph-name="Edieresis" unicode="&#xcb;" horiz-adv-x="1176" 
d="M184 1410h862v-163h-667v-440h636v-163h-636v-481h687v-163h-882v1410zM503 1768v-210h-192v210h192zM865 1768v-210h-192v210h192z" />
    <glyph glyph-name="Egrave" unicode="&#xc8;" horiz-adv-x="1176" 
d="M184 1410h862v-163h-667v-440h636v-163h-636v-481h687v-163h-882v1410zM332 1831h249l188 -301h-173z" />
    <glyph glyph-name="Iacute" unicode="&#xcd;" horiz-adv-x="569" 
d="M384 1410v-1410h-195v1410h195zM356 1831h250l-264 -301h-173z" />
    <glyph glyph-name="Icircumflex" unicode="&#xce;" horiz-adv-x="569" 
d="M384 1410v-1410h-195v1410h195zM194 1824h192l213 -294h-152l-157 181v0l-157 -181h-152z" />
    <glyph glyph-name="Idieresis" unicode="&#xcf;" horiz-adv-x="569" 
d="M384 1410v-1410h-195v1410h195zM200 1768v-210h-192v210h192zM562 1768v-210h-192v210h192z" />
    <glyph glyph-name="Igrave" unicode="&#xcc;" horiz-adv-x="569" 
d="M384 1410v-1410h-195v1410h195zM-10 1831h249l188 -301h-173z" />
    <glyph glyph-name="Oacute" unicode="&#xd3;" horiz-adv-x="1555" 
d="M336 1282q72 71 159 105q125 51 274 51q200 -1 344 -83q161 -93 228 -268q64 -169 64 -374q0 -200 -61 -371q-41 -117 -132 -207q-77 -78 -172 -114q-125 -49 -270 -49q-149 -1 -274 50q-213 83 -295 303q-67 175 -66 383q-2 377 201 574zM330 703q-1 -174 53 -317
q27 -79 92 -142q104 -109 295 -109q440 -2 440 593q0 161 -54 304q-26 68 -84 130q-104 112 -292 113q-447 1 -450 -572zM849 1831h250l-264 -301h-173z" />
    <glyph glyph-name="Ocircumflex" unicode="&#xd4;" horiz-adv-x="1555" 
d="M336 1282q72 71 159 105q125 51 274 51q200 -1 344 -83q161 -93 228 -268q64 -169 64 -374q0 -200 -61 -371q-41 -117 -132 -207q-77 -78 -172 -114q-125 -49 -270 -49q-149 -1 -274 50q-213 83 -295 303q-67 175 -66 383q-2 377 201 574zM330 703q-1 -174 53 -317
q27 -79 92 -142q104 -109 295 -109q440 -2 440 593q0 161 -54 304q-26 68 -84 130q-104 112 -292 113q-447 1 -450 -572zM694 1824h192l213 -294h-152l-157 181v0l-157 -181h-152z" />
    <glyph glyph-name="apple" unicode="&#xf000;" horiz-adv-x="1022" 
d="M76 0v1457h870v-1457h-870zM332 256h358v945h-358v-945z" />
    <glyph glyph-name="Ograve" unicode="&#xd2;" horiz-adv-x="1555" 
d="M336 1282q72 71 159 105q125 51 274 51q200 -1 344 -83q161 -93 228 -268q64 -169 64 -374q0 -200 -61 -371q-41 -117 -132 -207q-77 -78 -172 -114q-125 -49 -270 -49q-149 -1 -274 50q-213 83 -295 303q-67 175 -66 383q-2 377 201 574zM330 703q-1 -174 53 -317
q27 -79 92 -142q104 -109 295 -109q440 -2 440 593q0 161 -54 304q-26 68 -84 130q-104 112 -292 113q-447 1 -450 -572zM522 1831h249l188 -301h-173z" />
    <glyph glyph-name="Uacute" unicode="&#xda;" horiz-adv-x="1479" 
d="M371 1410v-818l4 -97q31 -362 359 -360q340 2 368 360l5 97v818h195v-812l-3 -122q-9 -163 -77 -271q-146 -233 -484 -233q-240 0 -393 127.5t-166 376.5l-3 122v812h195zM811 1831h250l-264 -301h-173z" />
    <glyph glyph-name="Ucircumflex" unicode="&#xdb;" horiz-adv-x="1479" 
d="M371 1410v-818l4 -97q31 -362 359 -360q340 2 368 360l5 97v818h195v-812l-3 -122q-9 -163 -77 -271q-146 -233 -484 -233q-240 0 -393 127.5t-166 376.5l-3 122v812h195zM656 1824h192l213 -294h-152l-157 181v0l-157 -181h-152z" />
    <glyph glyph-name="Ugrave" unicode="&#xd9;" horiz-adv-x="1479" 
d="M371 1410v-818l4 -97q31 -362 359 -360q340 2 368 360l5 97v818h195v-812l-3 -122q-9 -163 -77 -271q-146 -233 -484 -233q-240 0 -393 127.5t-166 376.5l-3 122v812h195zM484 1831h249l188 -301h-173z" />
    <glyph glyph-name="dotlessi" unicode="&#x131;" horiz-adv-x="493" 
d="M334 982v-982h-181v982h181z" />
    <glyph glyph-name="circumflex" unicode="&#x2c6;" 
d="M561 1398h192l213 -294h-152l-157 181v0l-157 -181h-152z" />
    <glyph glyph-name="tilde" unicode="&#x2dc;" 
d="M323 1177q27 247 179 245q59 0 128 -32l135 -63q16 -7 35 -7q63 -1 73 97h129q-3 -47 -9 -81q-12 -70 -59 -115q-50 -49 -117 -49q-59 0 -100 20l-145 69q-28 13 -55 13q-50 -2 -59 -56l-6 -41h-129v0z" />
    <glyph glyph-name="macron" unicode="&#xaf;" 
d="M988 1310v-138h-682v138h682z" />
    <glyph glyph-name="breve" unicode="&#x2d8;" 
d="M946 1398l-4 -44q-21 -171 -154 -222q-71 -29 -149 -28q-283 -3 -313 250l-4 44h135l5 -39q19 -137 172 -135q149 -2 172 135l5 39h135z" />
    <glyph glyph-name="dotaccent" unicode="&#x2d9;" 
d="M761 1382v-210h-192v210h192z" />
    <glyph glyph-name="ring" unicode="&#x2da;" 
d="M819 1169q-69 -72 -169 -71q-140 -1 -205 122q-33 56 -32 122q-1 98 69 171.5t168 73.5q97 0 169 -74q67 -69 68 -171q-2 -104 -68 -173zM769 1343q-1 46 -36 78t-83 33q-49 -1 -84 -31.5t-35 -79.5t34 -80t86 -32q115 2 118 112z" />
    <glyph glyph-name="cedilla" unicode="&#xb8;" 
d="M660 -128h158l-117 -262h-213z" />
    <glyph glyph-name="hungarumlaut" unicode="&#x2dd;" 
d="M542 1405h249l-264 -301h-173zM909 1405h250l-264 -301h-173z" />
    <glyph glyph-name="ogonek" unicode="&#x2db;" 
d="M979 53l-26 -73q-16 -47 -15 -87q-4 -78 91 -86h38l28 2v-173l-77 -2q-201 5 -197 172q-1 44 12 86q28 108 137 196l32 23z" />
    <glyph glyph-name="caron" unicode="&#x2c7;" 
d="M731 1104h-192l-213 294h162l160 -180v0l155 180h141z" />
    <glyph glyph-name="Lslash" unicode="&#x141;" horiz-adv-x="1100" 
d="M375 1410v-474v0l144 125v-176l-144 -118v0v-604h667v-163h-862v621v0l-139 -115v164l139 117v0v623h195z" />
    <glyph glyph-name="lslash" unicode="&#x142;" horiz-adv-x="493" 
d="M150 650v0l-118 -85v141l118 95v0v611h181v-492v0l118 90v-145l-118 -90v0v-775h-181v650z" />
    <glyph glyph-name="Scaron" unicode="&#x160;" horiz-adv-x="1328" 
d="M331 414q7 -110 36 -152q46 -68 123.5 -98t174.5 -29q138 0 232 52q124 68 122 193q0 47 -17 87q-31 74 -120 106l-379 99q-80 19 -149 51q-135 60 -181 177q-26 61 -25 131q-1 121 71 217.5t189 140.5q128 48 280 49q122 0 232 -35q212 -67 246 -288l8 -61h-195
q-26 222 -307 221q-95 0 -181 -33q-150 -54 -148 -191q1 -90 55 -130q29 -26 60 -35q117 -42 344 -93q99 -23 182 -55q228 -90 230 -340q-1 -83 -31 -156q-111 -271 -519 -270q-282 0 -416 131q-64 60 -87 143q-18 65 -25 168h195zM764 1530h-192l-213 294h162l160 -180v0
l155 180h141z" />
    <glyph glyph-name="scaron" unicode="&#x161;" horiz-adv-x="1024" 
d="M285 296q15 -190 217 -189q225 2 229 161q1 74 -74 107q-49 19 -106 35l-190 51q-126 35 -173 85q-63 64 -63 173q-1 87 51 155.5t131 99.5q92 36 198 36q172 0 268 -59q69 -43 96 -98q21 -43 25 -135h-188q-13 157 -188 157q-87 -2 -134 -27q-74 -40 -71 -109
q-3 -78 79 -109q77 -26 232 -65q70 -18 131 -42q161 -65 164 -237q0 -155 -127 -245q-100 -71 -273 -69q-238 -2 -342 101q-69 65 -80 223h188zM598 1104h-192l-213 294h162l160 -180v0l155 180h141z" />
    <glyph glyph-name="Zcaron" unicode="&#x17d;" horiz-adv-x="1252" 
d="M101 181l803 1066v0h-784v163h1004v-188l-806 -1059v0h832v-163h-1049v181zM726 1530h-192l-213 294h162l160 -180v0l155 180h141z" />
    <glyph glyph-name="zcaron" unicode="&#x17e;" horiz-adv-x="986" 
d="M98 157l559 693v0h-537v132h745v-154l-564 -696v0h582v-132h-785v157zM579 1104h-192l-213 294h162l160 -180v0l155 180h141z" />
    <glyph glyph-name="brokenbar" unicode="&#xa6;" horiz-adv-x="1024" 
d="M459 -460v919h105v-919h-105zM564 1483v-919h-105v919h105z" />
    <glyph glyph-name="Eth" unicode="&#xd0;" horiz-adv-x="1479" 
d="M184 1410h420q390 0 553 -169q84 -87 126 -197q63 -164 63 -346q-3 -353 -195 -539q-105 -102 -256 -134q-120 -26 -291 -25h-420v643h-141v147h141v620zM379 790h289v-147h-289v-480h230q174 0 290 40q135 46 198 208q54 137 54 296q0 262 -136 408q-121 131 -406 132
h-230v-457z" />
    <glyph glyph-name="eth" unicode="&#xf0;" horiz-adv-x="1176" 
d="M472 1255q-42 39 -93 77l-46 31l159 61l34 -22l104 -77l23 -18v0l195 73l41 -107l-138 -51v0l27 -27q78 -79 126 -151q71 -107 116 -254q47 -155 47 -306q-1 -237 -138 -377q-129 -134 -350 -135q-108 -1 -197 35q-159 62 -227 235q-48 118 -47 255q-1 128 44 240
q29 77 87 134q136 137 338 139q56 0 109 -17l47 -18l-15 23q-54 77 -128 146l-13 12v0l-229 -84l-41 107l176 65v0zM296 494q1 -382 291 -387q153 0 232 124q59 93 60 266q0 155 -64 255q-78 122 -222 123q-63 0 -112 -20q-184 -73 -185 -361z" />
    <glyph glyph-name="Yacute" unicode="&#xdd;" horiz-adv-x="1403" 
d="M292 1410l413 -687v0l418 687h209l-542 -832v-578h-195v570l-542 840h239zM773 1831h250l-264 -301h-173z" />
    <glyph glyph-name="yacute" unicode="&#xfd;" horiz-adv-x="1138" 
d="M263 982l308 -775v0l306 775h192l-558 -1346h-179l146 360v0l-412 986h197zM647 1405h250l-264 -301h-173z" />
    <glyph glyph-name="Thorn" unicode="&#xde;" horiz-adv-x="1214" 
d="M676 1151q233 -1 346 -83q147 -107 147 -316q0 -87 -32 -163q-28 -66 -75 -114q-56 -59 -129 -85q-120 -45 -257 -45h-307v-345h-195v1410h195v-259h307zM369 988v-480h310q82 -1 153 32q140 63 142 216q0 230 -295 232h-310z" />
    <glyph glyph-name="thorn" unicode="&#xfe;" horiz-adv-x="1176" 
d="M368 898q104 111 281 112q86 0 165 -33q71 -30 120 -81q132 -138 131 -400q0 -263 -130 -399q-55 -60 -133.5 -92.5t-166.5 -32.5q-178 1 -280 108l-25 28v-472h-181v1776h181v-560zM325 475q-1 -117 33 -206q17 -50 61 -92q67 -70 177 -70q59 -1 106 20q174 70 175 372
q1 109 -37 208q-61 168 -235 168q-84 1 -151 -46.5t-93 -125.5q-36 -105 -36 -228z" />
    <glyph glyph-name="minus" unicode="&#x2212;" horiz-adv-x="2048" 
d="M473 630h1156v-119h-1156v119z" />
    <glyph glyph-name="multiply" unicode="&#xd7;" horiz-adv-x="2048" 
d="M622 59l-82 81l434 434v0l-434 433l82 82l433 -433v0l434 433l81 -82l-433 -433v0l433 -434l-81 -81l-434 433v0z" />
    <glyph glyph-name="onesuperior" unicode="&#xb9;" horiz-adv-x="796" 
d="M235 1335q62 26 115 74l18 17h140v-750h-140v612l-27 -21q-61 -43 -131 -63l-28 -8v119z" />
    <glyph glyph-name="twosuperior" unicode="&#xb2;" horiz-adv-x="796" 
d="M126 794q172 131 298 243q106 96 109 182q-1 43 -36 76q-30 28 -80 27q-113 2 -129 -117h-139l-1 14q-1 105 85 164q74 51 182 52q108 -2 178 -52q81 -59 80 -162q1 -121 -120 -233q-103 -96 -250 -199v0h388v-113h-565v118v0z" />
    <glyph glyph-name="threesuperior" unicode="&#xb3;" horiz-adv-x="796" 
d="M238 895l6 -25q25 -87 155 -90q60 -1 99 27q53 37 52 88q-3 101 -170 106l-43 -1v114l68 2q123 11 124 105q3 101 -130 101q-106 -3 -131 -80l-7 -27h-140v12q3 105 91 159q76 47 185 49q104 -1 183 -47q86 -51 89 -159q1 -122 -105 -150l-64 -15v0l57 -7
q133 -26 133 -168q1 -109 -97 -173q-74 -50 -198 -49q-264 2 -292 178l-5 50h140z" />
    <glyph glyph-name="onehalf" unicode="&#xbd;" horiz-adv-x="2048" 
d="M1309 1435h130l-852 -1514h-129zM1133 118q172 130 298 244q106 96 109 181q-1 48 -35 76t-79 27q-115 3 -130 -116h-140v13q4 108 85 164q76 51 184 52q104 1 176 -51q79 -57 79 -161q0 -55 -20 -97q-37 -82 -99 -138q-103 -96 -251 -199v0h389v-113h-566v118v0z
M416 1335q62 26 115 74l18 17h140v-750h-140v612l-27 -21q-61 -43 -131 -63l-28 -8v119z" />
    <glyph glyph-name="onequarter" unicode="&#xbc;" horiz-adv-x="2048" 
d="M1309 1435h130l-852 -1514h-129zM1406 750h138v-454h147v-113h-147v-183h-140v183h-342v118zM1188 296v0h216v276v0zM408 1335q39 14 66 34l49 40l19 17h140v-750h-140v612l-27 -21q-31 -24 -70 -40q-29 -14 -62 -23l-28 -8v119z" />
    <glyph glyph-name="threequarters" unicode="&#xbe;" horiz-adv-x="2048" 
d="M1442 1435h130l-852 -1514h-129zM1509 750h138v-454h147v-113h-147v-183h-140v183h-342v118zM1291 296v0h216v276v0zM479 895l5 -25q19 -87 156 -90q60 -1 99 27q53 37 52 88q-3 102 -171 106l-42 -1v114l68 2q123 11 124 105q3 101 -131 101q-106 -3 -131 -80l-7 -27
h-139l-1 12q-1 39 16.5 76.5t43.5 59.5q76 69 217 72q104 -1 183 -47q86 -51 89 -159q1 -122 -105 -150l-64 -15v0l56 -7q134 -25 134 -168q1 -109 -97 -173q-74 -50 -198 -49q-264 2 -292 178l-5 50h140z" />
    <glyph glyph-name="franc" unicode="&#x20a3;" horiz-adv-x="1707" 
d="M181 1410h873v-163h-678v-449h642v-163h-642v-635h-195v1410zM1098 982h181v-108l40 44q44 45 98 66q62 25 133 26h56v-167l-62 4q-154 0 -221 -116q-44 -78 -44 -255v-476h-181v982z" />
    <glyph glyph-name="Gbreve" unicode="&#x11e;" horiz-adv-x="1517" 
d="M821 767h514v-713q-308 -81 -495 -82q-194 -1 -347 60q-187 72 -283 268q-81 163 -79 388q-2 334 166 534q183 217 510 216q120 -1 232 -31q274 -75 295 -333l1 -25h-195l-16 56q-17 50 -53 84q-49 47 -115.5 66.5t-140.5 19.5q-106 0 -202 -37q-233 -87 -276 -389
q-11 -73 -11 -149q-1 -165 49 -301q92 -263 470 -264q116 -2 248 32l47 14v423h-319v163zM1082 1824l-4 -44q-21 -171 -154 -222q-71 -29 -149 -28q-283 -3 -313 250l-4 44h135l5 -39q19 -137 172 -135q149 -2 172 135l5 39h135z" />
    <glyph glyph-name="gbreve" unicode="&#x11f;" horiz-adv-x="1176" 
d="M339 -77l1 -33q16 -151 226 -151q239 0 263 233q6 60 6 113v98l-31 -44q-101 -124 -291 -123q-185 -1 -286 110q-57 60 -84 134q-44 113 -43 246q0 128 42 239q44 120 157 195q107 71 242 70q177 -1 271 -121l23 -32v125h181v-900q-2 -128 -15 -192q-20 -104 -85 -170
q-115 -117 -356 -116q-379 -4 -406 254l-3 65h188zM288 503q0 -354 268 -352q276 1 281 369q0 158 -58 244q-77 113 -217 111q-275 3 -274 -372zM889 1398l-4 -44q-21 -171 -154 -222q-71 -29 -149 -28q-283 -3 -313 250l-4 44h135l5 -39q19 -137 172 -135q149 -2 172 135
l5 39h135z" />
    <glyph glyph-name="Idotaccent" unicode="&#x130;" horiz-adv-x="569" 
d="M384 1410v-1410h-195v1410h195zM384 1768v-210h-192v210h192z" />
    <glyph glyph-name="Scedilla" unicode="&#x15e;" horiz-adv-x="1327" 
d="M645 -125h161l-115 -266h-213zM331 414q7 -110 36 -152q46 -68 123.5 -98t174.5 -29q138 0 232 52q124 68 122 193q0 47 -17 87q-31 74 -120 106l-379 99q-80 19 -149 51q-135 60 -181 177q-26 61 -25 131q-1 121 71 217.5t189 140.5q128 48 280 49q122 0 232 -35
q212 -67 246 -288l8 -61h-195q-26 222 -307 221q-95 0 -181 -33q-150 -54 -148 -191q1 -90 55 -130q29 -26 60 -35q117 -42 344 -93q99 -23 182 -55q228 -90 230 -340q-1 -83 -31 -156q-111 -271 -519 -270q-282 0 -416 131q-64 60 -87 143q-18 65 -25 168h195z" />
    <glyph glyph-name="scedilla" unicode="&#x15f;" horiz-adv-x="1024" 
d="M475 -128h158l-116 -262h-214zM285 296q15 -190 217 -189q225 2 229 161q1 74 -74 107q-49 19 -106 35l-190 51q-126 35 -173 85q-63 64 -63 173q-1 87 51 155.5t131 99.5q92 36 198 36q172 0 268 -59q69 -43 96 -98q21 -43 25 -135h-188q-13 157 -188 157
q-87 -2 -134 -27q-74 -40 -71 -109q-3 -78 79 -109q77 -26 232 -65q70 -18 131 -42q161 -65 164 -237q0 -155 -127 -245q-100 -71 -273 -69q-238 -2 -342 101q-69 65 -80 223h188z" />
    <glyph glyph-name="Cacute" unicode="&#x106;" horiz-adv-x="1441" 
d="M1113 1089q-24 93 -130 146q-78 39 -195 40q-236 0 -353 -163q-100 -140 -99 -386q4 -565 441 -591q115 -1 201 43q104 54 133 154l10 44h195v-33q-8 -96 -87 -195q-67 -83 -172 -124q-132 -53 -280 -52q-320 0 -488 209q-148 184 -148 520q-1 204 64.5 379t231.5 272
q146 86 351 86q216 -1 344 -84q175 -114 183 -294v-24h-195zM792 1831h250l-264 -301h-173z" />
    <glyph glyph-name="cacute" unicode="&#x107;" horiz-adv-x="1100" 
d="M793 670q-28 203 -227 205q-60 0 -112 -21q-96 -38 -126 -130q-34 -98 -34 -209q0 -189 41 -274q65 -137 226 -134q183 0 224 134q12 35 19 88h188q-15 -105 -35 -153q-29 -70 -97 -120q-115 -84 -297 -84q-231 0 -347 141q-110 135 -110 364q-1 254 110 382
q130 150 365 151q213 -2 314 -112q57 -62 74 -146l12 -82h-188v0zM628 1405h250l-264 -301h-173z" />
    <glyph glyph-name="Ccaron" unicode="&#x10c;" horiz-adv-x="1441" 
d="M1113 1089q-24 93 -130 146q-78 39 -195 40q-236 0 -353 -163q-100 -140 -99 -386q4 -565 441 -591q115 -1 201 43q104 54 133 154l10 44h195v-33q-8 -96 -87 -195q-67 -83 -172 -124q-132 -53 -280 -52q-320 0 -488 209q-148 184 -148 520q-1 204 64.5 379t231.5 272
q146 86 351 86q216 -1 344 -84q175 -114 183 -294v-24h-195zM846 1530h-192l-213 294h162l160 -180v0l155 180h141z" />
    <glyph glyph-name="ccaron" unicode="&#x10d;" horiz-adv-x="1100" 
d="M793 670q-28 203 -227 205q-60 0 -112 -21q-96 -38 -126 -130q-34 -98 -34 -209q0 -189 41 -274q65 -137 226 -134q183 0 224 134q12 35 19 88h188q-15 -105 -35 -153q-29 -70 -97 -120q-115 -84 -297 -84q-231 0 -347 141q-110 135 -110 364q-1 254 110 382
q130 150 365 151q213 -2 314 -112q57 -62 74 -146l12 -82h-188v0zM662 1104h-192l-213 294h162l160 -180v0l155 180h141z" />
    <glyph glyph-name="dcroat" unicode="&#x111;" horiz-adv-x="1176" 
d="M614 1121v118h215v173h181v-173h120v-118h-120v-1121h-181v127q-101 -155 -308 -155q-90 -1 -165 32q-264 112 -262 483q0 225 101 360q121 161 330 163q169 -2 265 -106l39 -47v264h-215zM282 476q-1 -155 56 -248q74 -120 213 -121q55 -1 109 20q46 16 76 46
q92 90 94 329q1 193 -95 298q-33 36 -80 55t-96 20q-155 -1 -223 -134q-56 -106 -54 -265z" />
    <glyph glyph-name="sfthyphen" unicode="&#xad;" horiz-adv-x="683" 
d="M581 603v-133h-488v133h488z" />
  </font>
</defs></svg>
